info face="Roboto-Black" size=42 bold=0 italic=0 unicode=1 stretchH=100 smooth=1 aa=1 padding=2,2,2,2 spacing=0,0 charset=""
common lineHeight=44 base=34 scaleW=439 scaleH=443 pages=1 packed=0 alphaChnl=0 redChnl=0 greenChnl=0 blueChnl=0
page id=0 file="Roboto-Black.png"
chars count=193
char id=40 index=12 char="(" width=16 height=46 xoffset=0 yoffset=1 xadvance=15 chnl=15 x=0 y=0 page=0
char id=41 index=13 char=")" width=16 height=46 xoffset=-1 yoffset=1 xadvance=15 chnl=15 x=18 y=0 page=0
char id=91 index=63 char="[" width=13 height=46 xoffset=0 yoffset=-1 xadvance=12 chnl=15 x=36 y=0 page=0
char id=93 index=65 char="]" width=13 height=46 xoffset=-2 yoffset=-1 xadvance=12 chnl=15 x=0 y=48 page=0
char id=106 index=78 char="j" width=16 height=44 xoffset=-4 yoffset=3 xadvance=11 chnl=15 x=15 y=48 page=0
char id=123 index=95 char="{" width=16 height=44 xoffset=-1 yoffset=1 xadvance=14 chnl=15 x=33 y=48 page=0
char id=125 index=97 char="}" width=16 height=44 xoffset=-1 yoffset=1 xadvance=14 chnl=15 x=51 y=0 page=0
char id=197 index=644 char="Å" width=33 height=44 xoffset=-2 yoffset=-6 xadvance=29 chnl=15 x=69 y=0 page=0
char id=199 index=646 char="Ç" width=29 height=44 xoffset=-1 yoffset=4 xadvance=28 chnl=15 x=51 y=46 page=0
char id=253 index=692 char="ý" width=26 height=44 xoffset=-2 yoffset=3 xadvance=22 chnl=15 x=0 y=96 page=0
char id=254 index=138 char="þ" width=25 height=44 xoffset=0 yoffset=3 xadvance=24 chnl=15 x=28 y=94 page=0
char id=255 index=693 char="ÿ" width=26 height=44 xoffset=-2 yoffset=3 xadvance=22 chnl=15 x=55 y=92 page=0
char id=36 index=8 char="$" width=25 height=43 xoffset=0 yoffset=-1 xadvance=24 chnl=15 x=104 y=0 page=0
char id=167 index=105 char="§" width=27 height=43 xoffset=0 yoffset=4 xadvance=27 chnl=15 x=82 y=46 page=0
char id=64 index=36 char="@" width=39 height=42 xoffset=-1 yoffset=5 xadvance=38 chnl=15 x=83 y=91 page=0
char id=192 index=639 char="À" width=33 height=42 xoffset=-2 yoffset=-4 xadvance=29 chnl=15 x=131 y=0 page=0
char id=193 index=640 char="Á" width=33 height=42 xoffset=-2 yoffset=-4 xadvance=29 chnl=15 x=131 y=44 page=0
char id=194 index=641 char="Â" width=33 height=42 xoffset=-2 yoffset=-4 xadvance=29 chnl=15 x=124 y=88 page=0
char id=195 index=642 char="Ã" width=33 height=42 xoffset=-2 yoffset=-4 xadvance=29 chnl=15 x=0 y=142 page=0
char id=198 index=129 char="Æ" width=42 height=34 xoffset=-2 yoffset=4 xadvance=39 chnl=15 x=35 y=140 page=0
char id=200 index=647 char="È" width=25 height=42 xoffset=0 yoffset=-4 xadvance=24 chnl=15 x=79 y=138 page=0
char id=201 index=648 char="É" width=25 height=42 xoffset=0 yoffset=-4 xadvance=24 chnl=15 x=106 y=135 page=0
char id=202 index=649 char="Ê" width=25 height=42 xoffset=0 yoffset=-4 xadvance=24 chnl=15 x=133 y=132 page=0
char id=204 index=651 char="Ì" width=16 height=42 xoffset=-4 yoffset=-4 xadvance=13 chnl=15 x=159 y=88 page=0
char id=205 index=652 char="Í" width=16 height=42 xoffset=1 yoffset=-4 xadvance=13 chnl=15 x=166 y=0 page=0
char id=206 index=653 char="Î" width=21 height=42 xoffset=-4 yoffset=-4 xadvance=13 chnl=15 x=160 y=132 page=0
char id=209 index=655 char="Ñ" width=29 height=42 xoffset=0 yoffset=-4 xadvance=29 chnl=15 x=166 y=44 page=0
char id=210 index=656 char="Ò" width=30 height=42 xoffset=-1 yoffset=-4 xadvance=29 chnl=15 x=177 y=88 page=0
char id=211 index=657 char="Ó" width=30 height=42 xoffset=-1 yoffset=-4 xadvance=29 chnl=15 x=183 y=132 page=0
char id=212 index=658 char="Ô" width=30 height=42 xoffset=-1 yoffset=-4 xadvance=29 chnl=15 x=0 y=186 page=0
char id=213 index=659 char="Õ" width=30 height=42 xoffset=-1 yoffset=-4 xadvance=29 chnl=15 x=32 y=186 page=0
char id=217 index=661 char="Ù" width=28 height=42 xoffset=0 yoffset=-4 xadvance=28 chnl=15 x=184 y=0 page=0
char id=218 index=662 char="Ú" width=28 height=42 xoffset=0 yoffset=-4 xadvance=28 chnl=15 x=64 y=182 page=0
char id=219 index=663 char="Û" width=28 height=42 xoffset=0 yoffset=-4 xadvance=28 chnl=15 x=94 y=182 page=0
char id=221 index=665 char="Ý" width=31 height=42 xoffset=-2 yoffset=-4 xadvance=26 chnl=15 x=124 y=179 page=0
char id=196 index=643 char="Ä" width=33 height=41 xoffset=-2 yoffset=-3 xadvance=29 chnl=15 x=157 y=176 page=0
char id=203 index=650 char="Ë" width=25 height=41 xoffset=0 yoffset=-3 xadvance=24 chnl=15 x=215 y=0 page=0
char id=207 index=654 char="Ï" width=21 height=41 xoffset=-4 yoffset=-3 xadvance=13 chnl=15 x=197 y=44 page=0
char id=214 index=660 char="Ö" width=30 height=41 xoffset=-1 yoffset=-3 xadvance=29 chnl=15 x=209 y=87 page=0
char id=220 index=664 char="Ü" width=28 height=41 xoffset=0 yoffset=-3 xadvance=28 chnl=15 x=192 y=176 page=0
char id=338 index=147 char="Œ" width=41 height=35 xoffset=0 yoffset=4 xadvance=41 chnl=15 x=0 y=230 page=0
char id=81 index=53 char="Q" width=30 height=40 xoffset=-1 yoffset=4 xadvance=29 chnl=15 x=124 y=223 page=0
char id=87 index=59 char="W" width=40 height=34 xoffset=-2 yoffset=4 xadvance=37 chnl=15 x=43 y=230 page=0
char id=124 index=96 char="|" width=8 height=39 xoffset=2 yoffset=4 xadvance=11 chnl=15 x=85 y=226 page=0
char id=166 index=104 char="¦" width=10 height=39 xoffset=0 yoffset=4 xadvance=11 chnl=15 x=95 y=226 page=0
char id=339 index=148 char="œ" width=39 height=27 xoffset=0 yoffset=11 xadvance=38 chnl=15 x=156 y=223 page=0
char id=229 index=671 char="å" width=24 height=38 xoffset=-1 yoffset=1 xadvance=22 chnl=15 x=215 y=130 page=0
char id=216 index=131 char="Ø" width=30 height=37 xoffset=0 yoffset=3 xadvance=29 chnl=15 x=197 y=219 page=0
char id=230 index=134 char="æ" width=37 height=27 xoffset=-1 yoffset=11 xadvance=35 chnl=15 x=242 y=0 page=0
char id=240 index=135 char="ð" width=26 height=37 xoffset=-1 yoffset=2 xadvance=24 chnl=15 x=220 y=43 page=0
char id=47 index=19 char="/" width=19 height=36 xoffset=-3 yoffset=4 xadvance=15 chnl=15 x=222 y=170 page=0
char id=77 index=49 char="M" width=36 height=34 xoffset=0 yoffset=4 xadvance=37 chnl=15 x=243 y=82 page=0
char id=92 index=64 char="\\" width=24 height=36 xoffset=-2 yoffset=4 xadvance=18 chnl=15 x=248 y=29 page=0
char id=98 index=70 char="b" width=25 height=36 xoffset=0 yoffset=3 xadvance=24 chnl=15 x=243 y=118 page=0
char id=100 index=72 char="d" width=25 height=36 xoffset=-1 yoffset=3 xadvance=24 chnl=15 x=243 y=156 page=0
char id=102 index=74 char="f" width=19 height=36 xoffset=-2 yoffset=2 xadvance=15 chnl=15 x=243 y=194 page=0
char id=104 index=76 char="h" width=24 height=36 xoffset=0 yoffset=3 xadvance=24 chnl=15 x=0 y=267 page=0
char id=107 index=79 char="k" width=26 height=36 xoffset=0 yoffset=2 xadvance=23 chnl=15 x=26 y=267 page=0
char id=108 index=80 char="l" width=11 height=36 xoffset=0 yoffset=3 xadvance=12 chnl=15 x=111 y=45 page=0
char id=109 index=81 char="m" width=36 height=27 xoffset=0 yoffset=11 xadvance=36 chnl=15 x=156 y=252 page=0
char id=162 index=100 char="¢" width=24 height=36 xoffset=0 yoffset=7 xadvance=25 chnl=15 x=54 y=267 page=0
char id=223 index=133 char="ß" width=27 height=36 xoffset=1 yoffset=2 xadvance=27 chnl=15 x=80 y=267 page=0
char id=224 index=666 char="à" width=24 height=36 xoffset=-1 yoffset=3 xadvance=22 chnl=15 x=109 y=265 page=0
char id=225 index=667 char="á" width=24 height=36 xoffset=-1 yoffset=3 xadvance=22 chnl=15 x=194 y=258 page=0
char id=226 index=668 char="â" width=24 height=36 xoffset=-1 yoffset=3 xadvance=22 chnl=15 x=220 y=258 page=0
char id=227 index=669 char="ã" width=24 height=36 xoffset=-1 yoffset=2 xadvance=22 chnl=15 x=246 y=232 page=0
char id=231 index=673 char="ç" width=24 height=36 xoffset=-1 yoffset=11 xadvance=22 chnl=15 x=264 y=194 page=0
char id=232 index=674 char="è" width=25 height=36 xoffset=-1 yoffset=2 xadvance=23 chnl=15 x=274 y=29 page=0
char id=233 index=675 char="é" width=25 height=36 xoffset=-1 yoffset=2 xadvance=23 chnl=15 x=272 y=232 page=0
char id=234 index=676 char="ê" width=25 height=36 xoffset=-1 yoffset=2 xadvance=23 chnl=15 x=270 y=118 page=0
char id=241 index=682 char="ñ" width=24 height=36 xoffset=0 yoffset=2 xadvance=24 chnl=15 x=270 y=156 page=0
char id=242 index=683 char="ò" width=25 height=36 xoffset=-1 yoffset=3 xadvance=24 chnl=15 x=0 y=305 page=0
char id=243 index=684 char="ó" width=25 height=36 xoffset=-1 yoffset=3 xadvance=24 chnl=15 x=27 y=305 page=0
char id=244 index=685 char="ô" width=25 height=36 xoffset=-1 yoffset=3 xadvance=24 chnl=15 x=54 y=305 page=0
char id=245 index=686 char="õ" width=25 height=36 xoffset=-1 yoffset=2 xadvance=24 chnl=15 x=81 y=305 page=0
char id=249 index=688 char="ù" width=24 height=36 xoffset=0 yoffset=3 xadvance=24 chnl=15 x=281 y=67 page=0
char id=250 index=689 char="ú" width=24 height=36 xoffset=0 yoffset=3 xadvance=24 chnl=15 x=108 y=305 page=0
char id=251 index=690 char="û" width=24 height=36 xoffset=0 yoffset=3 xadvance=24 chnl=15 x=134 y=303 page=0
char id=37 index=9 char="%" width=32 height=35 xoffset=0 yoffset=4 xadvance=31 chnl=15 x=160 y=281 page=0
char id=38 index=10 char="&" width=30 height=35 xoffset=-1 yoffset=4 xadvance=28 chnl=15 x=194 y=296 page=0
char id=48 index=20 char="0" width=25 height=35 xoffset=0 yoffset=4 xadvance=24 chnl=15 x=226 y=296 page=0
char id=51 index=23 char="3" width=26 height=35 xoffset=-1 yoffset=4 xadvance=24 chnl=15 x=253 y=270 page=0
char id=54 index=26 char="6" width=25 height=35 xoffset=0 yoffset=4 xadvance=24 chnl=15 x=307 y=0 page=0
char id=56 index=28 char="8" width=25 height=35 xoffset=0 yoffset=4 xadvance=24 chnl=15 x=307 y=37 page=0
char id=57 index=29 char="9" width=25 height=35 xoffset=0 yoffset=4 xadvance=24 chnl=15 x=307 y=74 page=0
char id=59 index=31 char=";" width=12 height=35 xoffset=-1 yoffset=11 xadvance=12 chnl=15 x=229 y=208 page=0
char id=63 index=35 char="?" width=23 height=35 xoffset=-1 yoffset=4 xadvance=21 chnl=15 x=290 y=194 page=0
char id=67 index=39 char="C" width=29 height=35 xoffset=-1 yoffset=4 xadvance=28 chnl=15 x=296 y=156 page=0
char id=71 index=43 char="G" width=29 height=35 xoffset=0 yoffset=4 xadvance=29 chnl=15 x=299 y=231 page=0
char id=79 index=51 char="O" width=30 height=35 xoffset=-1 yoffset=4 xadvance=29 chnl=15 x=299 y=268 page=0
char id=83 index=55 char="S" width=28 height=35 xoffset=-1 yoffset=4 xadvance=26 chnl=15 x=281 y=305 page=0
char id=103 index=75 char="g" width=25 height=35 xoffset=-1 yoffset=11 xadvance=24 chnl=15 x=297 y=111 page=0
char id=105 index=77 char="i" width=12 height=35 xoffset=0 yoffset=3 xadvance=12 chnl=15 x=135 y=265 page=0
char id=112 index=84 char="p" width=25 height=35 xoffset=0 yoffset=11 xadvance=24 chnl=15 x=334 y=0 page=0
char id=113 index=85 char="q" width=25 height=35 xoffset=-1 yoffset=11 xadvance=24 chnl=15 x=334 y=37 page=0
char id=121 index=93 char="y" width=26 height=35 xoffset=-2 yoffset=12 xadvance=22 chnl=15 x=315 y=193 page=0
char id=169 index=107 char="©" width=33 height=35 xoffset=0 yoffset=4 xadvance=33 chnl=15 x=311 y=305 page=0
char id=174 index=111 char="®" width=33 height=35 xoffset=0 yoffset=4 xadvance=33 chnl=15 x=324 y=111 page=0
char id=181 index=118 char="µ" width=25 height=35 xoffset=1 yoffset=12 xadvance=27 chnl=15 x=334 y=74 page=0
char id=191 index=128 char="¿" width=23 height=35 xoffset=-1 yoffset=11 xadvance=21 chnl=15 x=330 y=230 page=0
char id=228 index=670 char="ä" width=24 height=35 xoffset=-1 yoffset=3 xadvance=22 chnl=15 x=331 y=267 page=0
char id=235 index=677 char="ë" width=25 height=35 xoffset=-1 yoffset=3 xadvance=23 chnl=15 x=327 y=148 page=0
char id=236 index=678 char="ì" width=16 height=35 xoffset=-4 yoffset=3 xadvance=12 chnl=15 x=343 y=185 page=0
char id=237 index=679 char="í" width=16 height=35 xoffset=1 yoffset=3 xadvance=12 chnl=15 x=0 y=343 page=0
char id=238 index=680 char="î" width=21 height=35 xoffset=-5 yoffset=3 xadvance=12 chnl=15 x=18 y=343 page=0
char id=246 index=687 char="ö" width=25 height=35 xoffset=-1 yoffset=3 xadvance=24 chnl=15 x=41 y=343 page=0
char id=252 index=691 char="ü" width=24 height=35 xoffset=0 yoffset=3 xadvance=24 chnl=15 x=68 y=343 page=0
char id=8364 index=413 char="€" width=25 height=35 xoffset=0 yoffset=4 xadvance=24 chnl=15 x=94 y=343 page=0
char id=33 index=5 char="!" width=12 height=34 xoffset=0 yoffset=4 xadvance=12 chnl=15 x=346 y=304 page=0
char id=35 index=7 char="#" width=27 height=34 xoffset=-1 yoffset=4 xadvance=24 chnl=15 x=121 y=343 page=0
char id=49 index=21 char="1" width=18 height=34 xoffset=1 yoffset=4 xadvance=24 chnl=15 x=150 y=342 page=0
char id=50 index=22 char="2" width=25 height=34 xoffset=-1 yoffset=4 xadvance=24 chnl=15 x=253 y=307 page=0
char id=52 index=24 char="4" width=26 height=34 xoffset=-1 yoffset=4 xadvance=24 chnl=15 x=170 y=343 page=0
char id=53 index=25 char="5" width=25 height=34 xoffset=0 yoffset=4 xadvance=24 chnl=15 x=198 y=343 page=0
char id=55 index=27 char="7" width=26 height=34 xoffset=-1 yoffset=4 xadvance=24 chnl=15 x=225 y=333 page=0
char id=65 index=37 char="A" width=33 height=34 xoffset=-2 yoffset=4 xadvance=29 chnl=15 x=253 y=343 page=0
char id=66 index=38 char="B" width=27 height=34 xoffset=0 yoffset=4 xadvance=27 chnl=15 x=288 y=342 page=0
char id=68 index=40 char="D" width=27 height=34 xoffset=0 yoffset=4 xadvance=27 chnl=15 x=317 y=342 page=0
char id=69 index=41 char="E" width=25 height=34 xoffset=0 yoffset=4 xadvance=24 chnl=15 x=361 y=0 page=0
char id=70 index=42 char="F" width=24 height=34 xoffset=0 yoffset=4 xadvance=23 chnl=15 x=354 y=148 page=0
char id=72 index=44 char="H" width=29 height=34 xoffset=0 yoffset=4 xadvance=30 chnl=15 x=357 y=222 page=0
char id=73 index=45 char="I" width=11 height=34 xoffset=1 yoffset=4 xadvance=13 chnl=15 x=359 y=111 page=0
char id=74 index=46 char="J" width=25 height=34 xoffset=-1 yoffset=4 xadvance=24 chnl=15 x=361 y=184 page=0
char id=75 index=47 char="K" width=29 height=34 xoffset=0 yoffset=4 xadvance=27 chnl=15 x=357 y=258 page=0
char id=76 index=48 char="L" width=24 height=34 xoffset=0 yoffset=4 xadvance=23 chnl=15 x=361 y=36 page=0
char id=78 index=50 char="N" width=29 height=34 xoffset=0 yoffset=4 xadvance=29 chnl=15 x=346 y=340 page=0
char id=80 index=52 char="P" width=28 height=34 xoffset=0 yoffset=4 xadvance=27 chnl=15 x=0 y=380 page=0
char id=82 index=54 char="R" width=28 height=34 xoffset=0 yoffset=4 xadvance=27 chnl=15 x=30 y=380 page=0
char id=84 index=56 char="T" width=29 height=34 xoffset=-1 yoffset=4 xadvance=26 chnl=15 x=60 y=380 page=0
char id=85 index=57 char="U" width=28 height=34 xoffset=0 yoffset=4 xadvance=28 chnl=15 x=91 y=380 page=0
char id=86 index=58 char="V" width=32 height=34 xoffset=-2 yoffset=4 xadvance=28 chnl=15 x=121 y=379 page=0
char id=88 index=60 char="X" width=31 height=34 xoffset=-2 yoffset=4 xadvance=27 chnl=15 x=155 y=379 page=0
char id=89 index=61 char="Y" width=31 height=34 xoffset=-2 yoffset=4 xadvance=26 chnl=15 x=188 y=379 page=0
char id=90 index=62 char="Z" width=27 height=34 xoffset=-1 yoffset=4 xadvance=26 chnl=15 x=221 y=379 page=0
char id=119 index=91 char="w" width=34 height=26 xoffset=-2 yoffset=12 xadvance=30 chnl=15 x=346 y=376 page=0
char id=161 index=99 char="¡" width=12 height=34 xoffset=1 yoffset=11 xadvance=13 chnl=15 x=250 y=379 page=0
char id=163 index=101 char="£" width=26 height=34 xoffset=0 yoffset=4 xadvance=25 chnl=15 x=360 y=294 page=0
char id=165 index=103 char="¥" width=26 height=34 xoffset=-2 yoffset=4 xadvance=23 chnl=15 x=264 y=379 page=0
char id=182 index=119 char="¶" width=20 height=34 xoffset=0 yoffset=4 xadvance=21 chnl=15 x=292 y=378 page=0
char id=188 index=125 char="¼" width=30 height=34 xoffset=0 yoffset=4 xadvance=30 chnl=15 x=314 y=378 page=0
char id=189 index=126 char="½" width=32 height=34 xoffset=0 yoffset=4 xadvance=32 chnl=15 x=388 y=0 page=0
char id=190 index=127 char="¾" width=34 height=34 xoffset=0 yoffset=4 xadvance=35 chnl=15 x=361 y=72 page=0
char id=208 index=635 char="Ð" width=31 height=34 xoffset=-3 yoffset=4 xadvance=28 chnl=15 x=387 y=36 page=0
char id=222 index=132 char="Þ" width=27 height=34 xoffset=0 yoffset=4 xadvance=26 chnl=15 x=372 y=108 page=0
char id=239 index=681 char="ï" width=21 height=34 xoffset=-4 yoffset=4 xadvance=12 chnl=15 x=397 y=72 page=0
char id=116 index=88 char="t" width=18 height=32 xoffset=-2 yoffset=6 xadvance=14 chnl=15 x=401 y=108 page=0
char id=248 index=137 char="ø" width=25 height=32 xoffset=-1 yoffset=9 xadvance=24 chnl=15 x=380 y=144 page=0
char id=164 index=102 char="¤" width=30 height=30 xoffset=-1 yoffset=8 xadvance=29 chnl=15 x=388 y=178 page=0
char id=177 index=114 char="±" width=23 height=30 xoffset=0 yoffset=7 xadvance=23 chnl=15 x=388 y=210 page=0
char id=58 index=30 char=":" width=12 height=27 xoffset=0 yoffset=11 xadvance=13 chnl=15 x=281 y=0 page=0
char id=97 index=69 char="a" width=24 height=27 xoffset=-1 yoffset=11 xadvance=22 chnl=15 x=388 y=242 page=0
char id=99 index=71 char="c" width=24 height=27 xoffset=-1 yoffset=11 xadvance=22 chnl=15 x=388 y=271 page=0
char id=101 index=73 char="e" width=25 height=27 xoffset=-1 yoffset=11 xadvance=23 chnl=15 x=388 y=300 page=0
char id=110 index=82 char="n" width=24 height=27 xoffset=0 yoffset=11 xadvance=24 chnl=15 x=388 y=329 page=0
char id=111 index=83 char="o" width=25 height=27 xoffset=-1 yoffset=11 xadvance=24 chnl=15 x=382 y=358 page=0
char id=114 index=86 char="r" width=17 height=27 xoffset=0 yoffset=11 xadvance=16 chnl=15 x=382 y=387 page=0
char id=115 index=87 char="s" width=24 height=27 xoffset=-1 yoffset=11 xadvance=22 chnl=15 x=0 y=416 page=0
char id=117 index=89 char="u" width=24 height=27 xoffset=0 yoffset=12 xadvance=24 chnl=15 x=26 y=416 page=0
char id=126 index=98 char="~" width=27 height=14 xoffset=0 yoffset=17 xadvance=27 chnl=15 x=160 y=318 page=0
char id=247 index=136 char="÷" width=25 height=27 xoffset=-1 yoffset=8 xadvance=24 chnl=15 x=52 y=416 page=0
char id=43 index=15 char="+" width=24 height=26 xoffset=-1 yoffset=9 xadvance=22 chnl=15 x=79 y=416 page=0
char id=118 index=90 char="v" width=26 height=26 xoffset=-2 yoffset=12 xadvance=22 chnl=15 x=105 y=416 page=0
char id=120 index=92 char="x" width=25 height=26 xoffset=-2 yoffset=12 xadvance=22 chnl=15 x=133 y=416 page=0
char id=122 index=94 char="z" width=23 height=26 xoffset=-1 yoffset=12 xadvance=22 chnl=15 x=160 y=416 page=0
char id=60 index=32 char="<" width=22 height=24 xoffset=-1 yoffset=11 xadvance=21 chnl=15 x=185 y=416 page=0
char id=62 index=34 char=">" width=22 height=24 xoffset=0 yoffset=11 xadvance=22 chnl=15 x=209 y=416 page=0
char id=215 index=130 char="×" width=24 height=24 xoffset=-1 yoffset=10 xadvance=22 chnl=15 x=233 y=416 page=0
char id=42 index=14 char="*" width=23 height=22 xoffset=-1 yoffset=4 xadvance=20 chnl=15 x=259 y=416 page=0
char id=61 index=33 char="=" width=23 height=18 xoffset=1 yoffset=14 xadvance=25 chnl=15 x=284 y=416 page=0
char id=95 index=67 char="_" width=23 height=9 xoffset=-2 yoffset=34 xadvance=19 chnl=15 x=248 y=67 page=0
char id=171 index=109 char="«" width=22 height=20 xoffset=-1 yoffset=15 xadvance=22 chnl=15 x=309 y=416 page=0
char id=187 index=124 char="»" width=22 height=20 xoffset=0 yoffset=15 xadvance=22 chnl=15 x=333 y=416 page=0
char id=94 index=66 char="^" width=21 height=19 xoffset=-1 yoffset=4 xadvance=19 chnl=15 x=357 y=404 page=0
char id=168 index=106 char="¨" width=21 height=9 xoffset=0 yoffset=3 xadvance=21 chnl=15 x=357 y=425 page=0
char id=172 index=110 char="¬" width=21 height=13 xoffset=1 yoffset=17 xadvance=23 chnl=15 x=380 y=416 page=0
char id=179 index=116 char="³" width=18 height=21 xoffset=-1 yoffset=4 xadvance=16 chnl=15 x=401 y=387 page=0
char id=170 index=108 char="ª" width=17 height=20 xoffset=1 yoffset=4 xadvance=19 chnl=15 x=403 y=410 page=0
char id=178 index=115 char="²" width=17 height=20 xoffset=-1 yoffset=4 xadvance=16 chnl=15 x=422 y=0 page=0
char id=185 index=122 char="¹" width=12 height=20 xoffset=1 yoffset=4 xadvance=16 chnl=15 x=107 y=226 page=0
char id=186 index=123 char="º" width=18 height=20 xoffset=0 yoffset=4 xadvance=19 chnl=15 x=421 y=36 page=0
char id=175 index=112 char="¯" width=18 height=8 xoffset=2 yoffset=4 xadvance=22 chnl=15 x=35 y=176 page=0
char id=44 index=16 char="," width=12 height=17 xoffset=-1 yoffset=29 xadvance=11 chnl=15 x=281 y=270 page=0
char id=34 index=6 char="\"" width=16 height=16 xoffset=-1 yoffset=2 xadvance=13 chnl=15 x=422 y=58 page=0
char id=39 index=11 char="'" width=9 height=16 xoffset=-1 yoffset=3 xadvance=6 chnl=15 x=149 y=281 page=0
char id=45 index=17 char="-" width=16 height=9 xoffset=1 yoffset=18 xadvance=19 chnl=15 x=281 y=289 page=0
char id=173 index=633 char="­" width=16 height=9 xoffset=1 yoffset=18 xadvance=19 chnl=15 x=422 y=22 page=0
char id=96 index=68 char="`" width=15 height=10 xoffset=-1 yoffset=3 xadvance=14 chnl=15 x=229 y=245 page=0
char id=176 index=113 char="°" width=15 height=15 xoffset=1 yoffset=4 xadvance=17 chnl=15 x=107 y=248 page=0
char id=180 index=117 char="´" width=15 height=10 xoffset=0 yoffset=3 xadvance=14 chnl=15 x=380 y=432 page=0
char id=184 index=121 char="¸" width=13 height=14 xoffset=0 yoffset=34 xadvance=12 chnl=15 x=422 y=76 page=0
char id=46 index=18 char="." width=12 height=11 xoffset=0 yoffset=27 xadvance=13 chnl=15 x=281 y=105 page=0
char id=183 index=120 char="·" width=12 height=11 xoffset=1 yoffset=16 xadvance=13 chnl=15 x=397 y=432 page=0
char id=32 index=4 char=" " width=0 height=0 xoffset=-2 yoffset=34 xadvance=10 chnl=15 x=15 y=94 page=0
kernings count=1857
kerning first=32 second=84 amount=-1
kerning first=34 second=34 amount=-1
kerning first=34 second=39 amount=-1
kerning first=34 second=65 amount=-2
kerning first=34 second=97 amount=-1
kerning first=34 second=99 amount=-1
kerning first=34 second=100 amount=-1
kerning first=34 second=101 amount=-1
kerning first=34 second=103 amount=-1
kerning first=34 second=109 amount=0
kerning first=34 second=110 amount=0
kerning first=34 second=111 amount=-2
kerning first=34 second=112 amount=0
kerning first=34 second=113 amount=-1
kerning first=34 second=115 amount=-2
kerning first=34 second=119 amount=0
kerning first=34 second=192 amount=-2
kerning first=34 second=193 amount=-2
kerning first=34 second=194 amount=-2
kerning first=34 second=195 amount=-2
kerning first=34 second=196 amount=-2
kerning first=34 second=197 amount=-2
kerning first=34 second=224 amount=-1
kerning first=34 second=225 amount=-1
kerning first=34 second=226 amount=-1
kerning first=34 second=227 amount=-1
kerning first=34 second=228 amount=-1
kerning first=34 second=229 amount=-1
kerning first=34 second=231 amount=-1
kerning first=34 second=232 amount=-1
kerning first=34 second=233 amount=-1
kerning first=34 second=234 amount=-1
kerning first=34 second=235 amount=-1
kerning first=34 second=241 amount=0
kerning first=34 second=242 amount=-2
kerning first=34 second=243 amount=-2
kerning first=34 second=244 amount=-2
kerning first=34 second=245 amount=-2
kerning first=34 second=246 amount=-2
kerning first=34 second=339 amount=-1
kerning first=39 second=34 amount=-1
kerning first=39 second=39 amount=-1
kerning first=39 second=65 amount=-2
kerning first=39 second=97 amount=-1
kerning first=39 second=99 amount=-1
kerning first=39 second=100 amount=-1
kerning first=39 second=101 amount=-1
kerning first=39 second=103 amount=-1
kerning first=39 second=109 amount=0
kerning first=39 second=110 amount=0
kerning first=39 second=111 amount=-2
kerning first=39 second=112 amount=0
kerning first=39 second=113 amount=-1
kerning first=39 second=115 amount=-2
kerning first=39 second=119 amount=0
kerning first=39 second=192 amount=-2
kerning first=39 second=193 amount=-2
kerning first=39 second=194 amount=-2
kerning first=39 second=195 amount=-2
kerning first=39 second=196 amount=-2
kerning first=39 second=197 amount=-2
kerning first=39 second=224 amount=-1
kerning first=39 second=225 amount=-1
kerning first=39 second=226 amount=-1
kerning first=39 second=227 amount=-1
kerning first=39 second=228 amount=-1
kerning first=39 second=229 amount=-1
kerning first=39 second=231 amount=-1
kerning first=39 second=232 amount=-1
kerning first=39 second=233 amount=-1
kerning first=39 second=234 amount=-1
kerning first=39 second=235 amount=-1
kerning first=39 second=241 amount=0
kerning first=39 second=242 amount=-2
kerning first=39 second=243 amount=-2
kerning first=39 second=244 amount=-2
kerning first=39 second=245 amount=-2
kerning first=39 second=246 amount=-2
kerning first=39 second=339 amount=-1
kerning first=40 second=86 amount=0
kerning first=40 second=87 amount=1
kerning first=40 second=89 amount=0
kerning first=40 second=221 amount=0
kerning first=44 second=34 amount=-6
kerning first=44 second=39 amount=-6
kerning first=46 second=34 amount=-6
kerning first=46 second=39 amount=-6
kerning first=47 second=47 amount=-5
kerning first=65 second=34 amount=-2
kerning first=65 second=39 amount=-2
kerning first=65 second=63 amount=-2
kerning first=65 second=67 amount=0
kerning first=65 second=71 amount=0
kerning first=65 second=79 amount=0
kerning first=65 second=81 amount=0
kerning first=65 second=84 amount=-2
kerning first=65 second=85 amount=0
kerning first=65 second=86 amount=-2
kerning first=65 second=87 amount=-1
kerning first=65 second=89 amount=-3
kerning first=65 second=109 amount=-1
kerning first=65 second=110 amount=-1
kerning first=65 second=111 amount=0
kerning first=65 second=112 amount=-1
kerning first=65 second=116 amount=0
kerning first=65 second=117 amount=0
kerning first=65 second=118 amount=-1
kerning first=65 second=119 amount=-1
kerning first=65 second=121 amount=-1
kerning first=65 second=122 amount=0
kerning first=65 second=199 amount=0
kerning first=65 second=210 amount=0
kerning first=65 second=211 amount=0
kerning first=65 second=212 amount=0
kerning first=65 second=213 amount=0
kerning first=65 second=214 amount=0
kerning first=65 second=216 amount=0
kerning first=65 second=217 amount=0
kerning first=65 second=218 amount=0
kerning first=65 second=219 amount=0
kerning first=65 second=220 amount=0
kerning first=65 second=221 amount=-3
kerning first=65 second=241 amount=-1
kerning first=65 second=242 amount=0
kerning first=65 second=243 amount=0
kerning first=65 second=244 amount=0
kerning first=65 second=245 amount=0
kerning first=65 second=246 amount=0
kerning first=65 second=249 amount=0
kerning first=65 second=250 amount=0
kerning first=65 second=251 amount=0
kerning first=65 second=252 amount=0
kerning first=65 second=253 amount=-1
kerning first=65 second=255 amount=-1
kerning first=65 second=338 amount=0
kerning first=66 second=84 amount=-1
kerning first=66 second=86 amount=0
kerning first=66 second=89 amount=-1
kerning first=66 second=221 amount=-1
kerning first=67 second=41 amount=-1
kerning first=67 second=84 amount=-1
kerning first=67 second=93 amount=0
kerning first=67 second=125 amount=0
kerning first=68 second=44 amount=-3
kerning first=68 second=46 amount=-3
kerning first=68 second=65 amount=0
kerning first=68 second=84 amount=-2
kerning first=68 second=86 amount=0
kerning first=68 second=88 amount=0
kerning first=68 second=89 amount=-1
kerning first=68 second=90 amount=0
kerning first=68 second=192 amount=0
kerning first=68 second=193 amount=0
kerning first=68 second=194 amount=0
kerning first=68 second=195 amount=0
kerning first=68 second=196 amount=0
kerning first=68 second=197 amount=0
kerning first=68 second=198 amount=-1
kerning first=68 second=221 amount=-1
kerning first=69 second=84 amount=0
kerning first=69 second=99 amount=0
kerning first=69 second=100 amount=0
kerning first=69 second=101 amount=0
kerning first=69 second=102 amount=0
kerning first=69 second=103 amount=0
kerning first=69 second=111 amount=0
kerning first=69 second=113 amount=0
kerning first=69 second=117 amount=0
kerning first=69 second=118 amount=-1
kerning first=69 second=119 amount=0
kerning first=69 second=121 amount=-1
kerning first=69 second=231 amount=0
kerning first=69 second=232 amount=0
kerning first=69 second=233 amount=0
kerning first=69 second=234 amount=0
kerning first=69 second=235 amount=0
kerning first=69 second=242 amount=0
kerning first=69 second=243 amount=0
kerning first=69 second=244 amount=0
kerning first=69 second=245 amount=0
kerning first=69 second=246 amount=0
kerning first=69 second=249 amount=0
kerning first=69 second=250 amount=0
kerning first=69 second=251 amount=0
kerning first=69 second=252 amount=0
kerning first=69 second=253 amount=-1
kerning first=69 second=255 amount=-1
kerning first=69 second=339 amount=0
kerning first=70 second=44 amount=-6
kerning first=70 second=46 amount=-6
kerning first=70 second=65 amount=-4
kerning first=70 second=74 amount=-4
kerning first=70 second=84 amount=0
kerning first=70 second=97 amount=-1
kerning first=70 second=99 amount=0
kerning first=70 second=100 amount=0
kerning first=70 second=101 amount=0
kerning first=70 second=103 amount=0
kerning first=70 second=111 amount=0
kerning first=70 second=113 amount=0
kerning first=70 second=114 amount=-1
kerning first=70 second=117 amount=0
kerning first=70 second=118 amount=0
kerning first=70 second=121 amount=0
kerning first=70 second=192 amount=-4
kerning first=70 second=193 amount=-4
kerning first=70 second=194 amount=-4
kerning first=70 second=195 amount=-4
kerning first=70 second=196 amount=-4
kerning first=70 second=197 amount=-4
kerning first=70 second=224 amount=-1
kerning first=70 second=225 amount=-1
kerning first=70 second=226 amount=-1
kerning first=70 second=227 amount=-1
kerning first=70 second=228 amount=-1
kerning first=70 second=229 amount=-1
kerning first=70 second=231 amount=0
kerning first=70 second=232 amount=0
kerning first=70 second=233 amount=0
kerning first=70 second=234 amount=0
kerning first=70 second=235 amount=0
kerning first=70 second=242 amount=0
kerning first=70 second=243 amount=0
kerning first=70 second=244 amount=0
kerning first=70 second=245 amount=0
kerning first=70 second=246 amount=0
kerning first=70 second=249 amount=0
kerning first=70 second=250 amount=0
kerning first=70 second=251 amount=0
kerning first=70 second=252 amount=0
kerning first=70 second=253 amount=0
kerning first=70 second=255 amount=0
kerning first=70 second=339 amount=0
kerning first=72 second=65 amount=0
kerning first=72 second=84 amount=-1
kerning first=72 second=88 amount=0
kerning first=72 second=89 amount=-1
kerning first=72 second=192 amount=0
kerning first=72 second=193 amount=0
kerning first=72 second=194 amount=0
kerning first=72 second=195 amount=0
kerning first=72 second=196 amount=0
kerning first=72 second=197 amount=0
kerning first=72 second=221 amount=-1
kerning first=73 second=65 amount=0
kerning first=73 second=84 amount=-1
kerning first=73 second=88 amount=0
kerning first=73 second=89 amount=-1
kerning first=73 second=192 amount=0
kerning first=73 second=193 amount=0
kerning first=73 second=194 amount=0
kerning first=73 second=195 amount=0
kerning first=73 second=196 amount=0
kerning first=73 second=197 amount=0
kerning first=73 second=221 amount=-1
kerning first=74 second=65 amount=0
kerning first=74 second=192 amount=0
kerning first=74 second=193 amount=0
kerning first=74 second=194 amount=0
kerning first=74 second=195 amount=0
kerning first=74 second=196 amount=0
kerning first=74 second=197 amount=0
kerning first=75 second=45 amount=-3
kerning first=75 second=67 amount=-1
kerning first=75 second=71 amount=-1
kerning first=75 second=79 amount=-1
kerning first=75 second=81 amount=-1
kerning first=75 second=99 amount=-1
kerning first=75 second=100 amount=-1
kerning first=75 second=101 amount=-1
kerning first=75 second=103 amount=-1
kerning first=75 second=111 amount=-1
kerning first=75 second=113 amount=-1
kerning first=75 second=117 amount=0
kerning first=75 second=118 amount=-1
kerning first=75 second=119 amount=-1
kerning first=75 second=121 amount=-1
kerning first=75 second=173 amount=-3
kerning first=75 second=199 amount=-1
kerning first=75 second=210 amount=-1
kerning first=75 second=211 amount=-1
kerning first=75 second=212 amount=-1
kerning first=75 second=213 amount=-1
kerning first=75 second=214 amount=-1
kerning first=75 second=216 amount=-1
kerning first=75 second=231 amount=-1
kerning first=75 second=232 amount=-1
kerning first=75 second=233 amount=-1
kerning first=75 second=234 amount=-1
kerning first=75 second=235 amount=-1
kerning first=75 second=242 amount=-1
kerning first=75 second=243 amount=-1
kerning first=75 second=244 amount=-1
kerning first=75 second=245 amount=-1
kerning first=75 second=246 amount=-1
kerning first=75 second=249 amount=0
kerning first=75 second=250 amount=0
kerning first=75 second=251 amount=0
kerning first=75 second=252 amount=0
kerning first=75 second=253 amount=-1
kerning first=75 second=255 amount=-1
kerning first=75 second=339 amount=-1
kerning first=75 second=338 amount=-1
kerning first=76 second=34 amount=-6
kerning first=76 second=39 amount=-6
kerning first=76 second=65 amount=0
kerning first=76 second=67 amount=-1
kerning first=76 second=71 amount=-1
kerning first=76 second=79 amount=-1
kerning first=76 second=81 amount=-1
kerning first=76 second=84 amount=-4
kerning first=76 second=85 amount=0
kerning first=76 second=86 amount=-4
kerning first=76 second=87 amount=-2
kerning first=76 second=89 amount=-6
kerning first=76 second=117 amount=0
kerning first=76 second=118 amount=-3
kerning first=76 second=119 amount=-1
kerning first=76 second=121 amount=-3
kerning first=76 second=192 amount=0
kerning first=76 second=193 amount=0
kerning first=76 second=194 amount=0
kerning first=76 second=195 amount=0
kerning first=76 second=196 amount=0
kerning first=76 second=197 amount=0
kerning first=76 second=199 amount=-1
kerning first=76 second=210 amount=-1
kerning first=76 second=211 amount=-1
kerning first=76 second=212 amount=-1
kerning first=76 second=213 amount=-1
kerning first=76 second=214 amount=-1
kerning first=76 second=216 amount=-1
kerning first=76 second=217 amount=0
kerning first=76 second=218 amount=0
kerning first=76 second=219 amount=0
kerning first=76 second=220 amount=0
kerning first=76 second=221 amount=-6
kerning first=76 second=249 amount=0
kerning first=76 second=250 amount=0
kerning first=76 second=251 amount=0
kerning first=76 second=252 amount=0
kerning first=76 second=253 amount=-3
kerning first=76 second=255 amount=-3
kerning first=76 second=338 amount=-1
kerning first=77 second=65 amount=0
kerning first=77 second=84 amount=-1
kerning first=77 second=88 amount=0
kerning first=77 second=89 amount=-1
kerning first=77 second=192 amount=0
kerning first=77 second=193 amount=0
kerning first=77 second=194 amount=0
kerning first=77 second=195 amount=0
kerning first=77 second=196 amount=0
kerning first=77 second=197 amount=0
kerning first=77 second=221 amount=-1
kerning first=78 second=65 amount=0
kerning first=78 second=84 amount=-1
kerning first=78 second=88 amount=0
kerning first=78 second=89 amount=-1
kerning first=78 second=192 amount=0
kerning first=78 second=193 amount=0
kerning first=78 second=194 amount=0
kerning first=78 second=195 amount=0
kerning first=78 second=196 amount=0
kerning first=78 second=197 amount=0
kerning first=78 second=221 amount=-1
kerning first=79 second=44 amount=-3
kerning first=79 second=46 amount=-3
kerning first=79 second=65 amount=0
kerning first=79 second=84 amount=-2
kerning first=79 second=86 amount=0
kerning first=79 second=88 amount=0
kerning first=79 second=89 amount=-1
kerning first=79 second=90 amount=0
kerning first=79 second=192 amount=0
kerning first=79 second=193 amount=0
kerning first=79 second=194 amount=0
kerning first=79 second=195 amount=0
kerning first=79 second=196 amount=0
kerning first=79 second=197 amount=0
kerning first=79 second=198 amount=-1
kerning first=79 second=221 amount=-1
kerning first=80 second=44 amount=-8
kerning first=80 second=46 amount=-8
kerning first=80 second=65 amount=-4
kerning first=80 second=74 amount=-4
kerning first=80 second=88 amount=-1
kerning first=80 second=90 amount=-1
kerning first=80 second=97 amount=0
kerning first=80 second=99 amount=0
kerning first=80 second=100 amount=0
kerning first=80 second=101 amount=0
kerning first=80 second=103 amount=0
kerning first=80 second=111 amount=0
kerning first=80 second=113 amount=0
kerning first=80 second=116 amount=0
kerning first=80 second=118 amount=0
kerning first=80 second=121 amount=0
kerning first=80 second=192 amount=-4
kerning first=80 second=193 amount=-4
kerning first=80 second=194 amount=-4
kerning first=80 second=195 amount=-4
kerning first=80 second=196 amount=-4
kerning first=80 second=197 amount=-4
kerning first=80 second=198 amount=-6
kerning first=80 second=224 amount=0
kerning first=80 second=225 amount=0
kerning first=80 second=226 amount=0
kerning first=80 second=227 amount=0
kerning first=80 second=228 amount=0
kerning first=80 second=229 amount=0
kerning first=80 second=231 amount=0
kerning first=80 second=232 amount=0
kerning first=80 second=233 amount=0
kerning first=80 second=234 amount=0
kerning first=80 second=235 amount=0
kerning first=80 second=242 amount=0
kerning first=80 second=243 amount=0
kerning first=80 second=244 amount=0
kerning first=80 second=245 amount=0
kerning first=80 second=246 amount=0
kerning first=80 second=253 amount=0
kerning first=80 second=255 amount=0
kerning first=80 second=339 amount=0
kerning first=81 second=84 amount=-1
kerning first=81 second=86 amount=-1
kerning first=81 second=87 amount=0
kerning first=81 second=89 amount=-1
kerning first=81 second=221 amount=-1
kerning first=82 second=84 amount=-1
kerning first=82 second=86 amount=0
kerning first=82 second=89 amount=-1
kerning first=82 second=221 amount=-1
kerning first=84 second=32 amount=-1
kerning first=84 second=44 amount=-5
kerning first=84 second=45 amount=-6
kerning first=84 second=46 amount=-5
kerning first=84 second=65 amount=-2
kerning first=84 second=67 amount=-1
kerning first=84 second=71 amount=-1
kerning first=84 second=74 amount=-4
kerning first=84 second=79 amount=-1
kerning first=84 second=81 amount=-1
kerning first=84 second=83 amount=0
kerning first=84 second=84 amount=0
kerning first=84 second=86 amount=0
kerning first=84 second=87 amount=0
kerning first=84 second=89 amount=0
kerning first=84 second=97 amount=-3
kerning first=84 second=99 amount=-2
kerning first=84 second=100 amount=-2
kerning first=84 second=101 amount=-2
kerning first=84 second=103 amount=-2
kerning first=84 second=109 amount=-2
kerning first=84 second=110 amount=-2
kerning first=84 second=111 amount=-4
kerning first=84 second=112 amount=-2
kerning first=84 second=113 amount=-2
kerning first=84 second=114 amount=-1
kerning first=84 second=115 amount=-2
kerning first=84 second=117 amount=-1
kerning first=84 second=118 amount=-2
kerning first=84 second=119 amount=-1
kerning first=84 second=120 amount=-2
kerning first=84 second=121 amount=-2
kerning first=84 second=122 amount=-1
kerning first=84 second=171 amount=-3
kerning first=84 second=173 amount=-6
kerning first=84 second=187 amount=-3
kerning first=84 second=192 amount=-2
kerning first=84 second=193 amount=-2
kerning first=84 second=194 amount=-2
kerning first=84 second=195 amount=-2
kerning first=84 second=196 amount=-2
kerning first=84 second=197 amount=-2
kerning first=84 second=198 amount=-4
kerning first=84 second=199 amount=-1
kerning first=84 second=210 amount=-1
kerning first=84 second=211 amount=-1
kerning first=84 second=212 amount=-1
kerning first=84 second=213 amount=-1
kerning first=84 second=214 amount=-1
kerning first=84 second=216 amount=-1
kerning first=84 second=221 amount=0
kerning first=84 second=224 amount=-3
kerning first=84 second=225 amount=-3
kerning first=84 second=226 amount=-3
kerning first=84 second=227 amount=-3
kerning first=84 second=228 amount=-3
kerning first=84 second=229 amount=-3
kerning first=84 second=230 amount=-2
kerning first=84 second=231 amount=-2
kerning first=84 second=232 amount=-2
kerning first=84 second=233 amount=-2
kerning first=84 second=234 amount=-2
kerning first=84 second=235 amount=-2
kerning first=84 second=241 amount=-2
kerning first=84 second=242 amount=-4
kerning first=84 second=243 amount=-4
kerning first=84 second=244 amount=-4
kerning first=84 second=245 amount=-4
kerning first=84 second=246 amount=-4
kerning first=84 second=248 amount=-2
kerning first=84 second=249 amount=-1
kerning first=84 second=250 amount=-1
kerning first=84 second=251 amount=-1
kerning first=84 second=252 amount=-1
kerning first=84 second=253 amount=-2
kerning first=84 second=255 amount=-2
kerning first=84 second=339 amount=-2
kerning first=84 second=338 amount=-1
kerning first=85 second=65 amount=0
kerning first=85 second=192 amount=0
kerning first=85 second=193 amount=0
kerning first=85 second=194 amount=0
kerning first=85 second=195 amount=0
kerning first=85 second=196 amount=0
kerning first=85 second=197 amount=0
kerning first=86 second=41 amount=0
kerning first=86 second=44 amount=-4
kerning first=86 second=45 amount=-3
kerning first=86 second=46 amount=-4
kerning first=86 second=65 amount=-2
kerning first=86 second=67 amount=0
kerning first=86 second=71 amount=0
kerning first=86 second=79 amount=0
kerning first=86 second=81 amount=0
kerning first=86 second=93 amount=0
kerning first=86 second=97 amount=-1
kerning first=86 second=99 amount=-1
kerning first=86 second=100 amount=-1
kerning first=86 second=101 amount=-1
kerning first=86 second=103 amount=-1
kerning first=86 second=111 amount=-1
kerning first=86 second=113 amount=-1
kerning first=86 second=114 amount=-1
kerning first=86 second=117 amount=-1
kerning first=86 second=118 amount=0
kerning first=86 second=121 amount=0
kerning first=86 second=125 amount=0
kerning first=86 second=173 amount=-3
kerning first=86 second=192 amount=-2
kerning first=86 second=193 amount=-2
kerning first=86 second=194 amount=-2
kerning first=86 second=195 amount=-2
kerning first=86 second=196 amount=-2
kerning first=86 second=197 amount=-2
kerning first=86 second=199 amount=0
kerning first=86 second=210 amount=0
kerning first=86 second=211 amount=0
kerning first=86 second=212 amount=0
kerning first=86 second=213 amount=0
kerning first=86 second=214 amount=0
kerning first=86 second=216 amount=0
kerning first=86 second=224 amount=-1
kerning first=86 second=225 amount=-1
kerning first=86 second=226 amount=-1
kerning first=86 second=227 amount=-1
kerning first=86 second=228 amount=-1
kerning first=86 second=229 amount=-1
kerning first=86 second=231 amount=-1
kerning first=86 second=232 amount=-1
kerning first=86 second=233 amount=-1
kerning first=86 second=234 amount=-1
kerning first=86 second=235 amount=-1
kerning first=86 second=242 amount=-1
kerning first=86 second=243 amount=-1
kerning first=86 second=244 amount=-1
kerning first=86 second=245 amount=-1
kerning first=86 second=246 amount=-1
kerning first=86 second=249 amount=-1
kerning first=86 second=250 amount=-1
kerning first=86 second=251 amount=-1
kerning first=86 second=252 amount=-1
kerning first=86 second=253 amount=0
kerning first=86 second=255 amount=0
kerning first=86 second=339 amount=-1
kerning first=86 second=338 amount=0
kerning first=87 second=41 amount=0
kerning first=87 second=44 amount=-3
kerning first=87 second=45 amount=-1
kerning first=87 second=46 amount=-3
kerning first=87 second=65 amount=-1
kerning first=87 second=84 amount=0
kerning first=87 second=93 amount=0
kerning first=87 second=97 amount=-1
kerning first=87 second=99 amount=-1
kerning first=87 second=100 amount=-1
kerning first=87 second=101 amount=-1
kerning first=87 second=103 amount=-1
kerning first=87 second=111 amount=-1
kerning first=87 second=113 amount=-1
kerning first=87 second=114 amount=0
kerning first=87 second=117 amount=0
kerning first=87 second=125 amount=0
kerning first=87 second=173 amount=-1
kerning first=87 second=192 amount=-1
kerning first=87 second=193 amount=-1
kerning first=87 second=194 amount=-1
kerning first=87 second=195 amount=-1
kerning first=87 second=196 amount=-1
kerning first=87 second=197 amount=-1
kerning first=87 second=224 amount=-1
kerning first=87 second=225 amount=-1
kerning first=87 second=226 amount=-1
kerning first=87 second=227 amount=-1
kerning first=87 second=228 amount=-1
kerning first=87 second=229 amount=-1
kerning first=87 second=231 amount=-1
kerning first=87 second=232 amount=-1
kerning first=87 second=233 amount=-1
kerning first=87 second=234 amount=-1
kerning first=87 second=235 amount=-1
kerning first=87 second=242 amount=-1
kerning first=87 second=243 amount=-1
kerning first=87 second=244 amount=-1
kerning first=87 second=245 amount=-1
kerning first=87 second=246 amount=-1
kerning first=87 second=249 amount=0
kerning first=87 second=250 amount=0
kerning first=87 second=251 amount=0
kerning first=87 second=252 amount=0
kerning first=87 second=339 amount=-1
kerning first=88 second=45 amount=-3
kerning first=88 second=67 amount=-1
kerning first=88 second=71 amount=-1
kerning first=88 second=79 amount=-1
kerning first=88 second=81 amount=-1
kerning first=88 second=86 amount=0
kerning first=88 second=99 amount=-1
kerning first=88 second=100 amount=-1
kerning first=88 second=101 amount=-1
kerning first=88 second=103 amount=-1
kerning first=88 second=111 amount=0
kerning first=88 second=113 amount=-1
kerning first=88 second=117 amount=0
kerning first=88 second=118 amount=-1
kerning first=88 second=121 amount=-1
kerning first=88 second=173 amount=-3
kerning first=88 second=199 amount=-1
kerning first=88 second=210 amount=-1
kerning first=88 second=211 amount=-1
kerning first=88 second=212 amount=-1
kerning first=88 second=213 amount=-1
kerning first=88 second=214 amount=-1
kerning first=88 second=216 amount=-1
kerning first=88 second=231 amount=-1
kerning first=88 second=232 amount=-1
kerning first=88 second=233 amount=-1
kerning first=88 second=234 amount=-1
kerning first=88 second=235 amount=-1
kerning first=88 second=242 amount=0
kerning first=88 second=243 amount=0
kerning first=88 second=244 amount=0
kerning first=88 second=245 amount=0
kerning first=88 second=246 amount=0
kerning first=88 second=249 amount=0
kerning first=88 second=250 amount=0
kerning first=88 second=251 amount=0
kerning first=88 second=252 amount=0
kerning first=88 second=253 amount=-1
kerning first=88 second=255 amount=-1
kerning first=88 second=339 amount=-1
kerning first=88 second=338 amount=-1
kerning first=89 second=38 amount=-1
kerning first=89 second=41 amount=0
kerning first=89 second=42 amount=-1
kerning first=89 second=44 amount=-5
kerning first=89 second=45 amount=-3
kerning first=89 second=46 amount=-5
kerning first=89 second=65 amount=-3
kerning first=89 second=67 amount=-1
kerning first=89 second=71 amount=-1
kerning first=89 second=74 amount=-2
kerning first=89 second=79 amount=-1
kerning first=89 second=81 amount=-1
kerning first=89 second=83 amount=0
kerning first=89 second=84 amount=0
kerning first=89 second=85 amount=-2
kerning first=89 second=86 amount=0
kerning first=89 second=87 amount=0
kerning first=89 second=88 amount=0
kerning first=89 second=89 amount=0
kerning first=89 second=93 amount=0
kerning first=89 second=97 amount=-1
kerning first=89 second=99 amount=-1
kerning first=89 second=100 amount=-1
kerning first=89 second=101 amount=-1
kerning first=89 second=102 amount=0
kerning first=89 second=103 amount=-1
kerning first=89 second=109 amount=-1
kerning first=89 second=110 amount=-1
kerning first=89 second=111 amount=-1
kerning first=89 second=112 amount=-1
kerning first=89 second=113 amount=-1
kerning first=89 second=114 amount=-1
kerning first=89 second=115 amount=-1
kerning first=89 second=116 amount=0
kerning first=89 second=117 amount=-1
kerning first=89 second=118 amount=0
kerning first=89 second=120 amount=0
kerning first=89 second=121 amount=0
kerning first=89 second=122 amount=-1
kerning first=89 second=125 amount=0
kerning first=89 second=171 amount=-2
kerning first=89 second=173 amount=-3
kerning first=89 second=187 amount=-1
kerning first=89 second=192 amount=-3
kerning first=89 second=193 amount=-3
kerning first=89 second=194 amount=-3
kerning first=89 second=195 amount=-3
kerning first=89 second=196 amount=-3
kerning first=89 second=197 amount=-3
kerning first=89 second=198 amount=-2
kerning first=89 second=199 amount=-1
kerning first=89 second=210 amount=-1
kerning first=89 second=211 amount=-1
kerning first=89 second=212 amount=-1
kerning first=89 second=213 amount=-1
kerning first=89 second=214 amount=-1
kerning first=89 second=216 amount=-1
kerning first=89 second=217 amount=-2
kerning first=89 second=218 amount=-2
kerning first=89 second=219 amount=-2
kerning first=89 second=220 amount=-2
kerning first=89 second=221 amount=0
kerning first=89 second=224 amount=-1
kerning first=89 second=225 amount=-1
kerning first=89 second=226 amount=-1
kerning first=89 second=227 amount=-1
kerning first=89 second=228 amount=-1
kerning first=89 second=229 amount=-1
kerning first=89 second=230 amount=-1
kerning first=89 second=231 amount=-1
kerning first=89 second=232 amount=-1
kerning first=89 second=233 amount=-1
kerning first=89 second=234 amount=-1
kerning first=89 second=235 amount=-1
kerning first=89 second=241 amount=-1
kerning first=89 second=242 amount=-1
kerning first=89 second=243 amount=-1
kerning first=89 second=244 amount=-1
kerning first=89 second=245 amount=-1
kerning first=89 second=246 amount=-1
kerning first=89 second=248 amount=-1
kerning first=89 second=249 amount=-1
kerning first=89 second=250 amount=-1
kerning first=89 second=251 amount=-1
kerning first=89 second=252 amount=-1
kerning first=89 second=253 amount=0
kerning first=89 second=255 amount=0
kerning first=89 second=339 amount=-1
kerning first=89 second=338 amount=-1
kerning first=90 second=65 amount=0
kerning first=90 second=67 amount=-1
kerning first=90 second=71 amount=-1
kerning first=90 second=79 amount=-1
kerning first=90 second=81 amount=-1
kerning first=90 second=99 amount=0
kerning first=90 second=100 amount=0
kerning first=90 second=101 amount=0
kerning first=90 second=103 amount=0
kerning first=90 second=111 amount=0
kerning first=90 second=113 amount=0
kerning first=90 second=117 amount=0
kerning first=90 second=118 amount=-1
kerning first=90 second=119 amount=-1
kerning first=90 second=121 amount=-1
kerning first=90 second=192 amount=0
kerning first=90 second=193 amount=0
kerning first=90 second=194 amount=0
kerning first=90 second=195 amount=0
kerning first=90 second=196 amount=0
kerning first=90 second=197 amount=0
kerning first=90 second=199 amount=-1
kerning first=90 second=210 amount=-1
kerning first=90 second=211 amount=-1
kerning first=90 second=212 amount=-1
kerning first=90 second=213 amount=-1
kerning first=90 second=214 amount=-1
kerning first=90 second=216 amount=-1
kerning first=90 second=231 amount=0
kerning first=90 second=232 amount=0
kerning first=90 second=233 amount=0
kerning first=90 second=234 amount=0
kerning first=90 second=235 amount=0
kerning first=90 second=242 amount=0
kerning first=90 second=243 amount=0
kerning first=90 second=244 amount=0
kerning first=90 second=245 amount=0
kerning first=90 second=246 amount=0
kerning first=90 second=249 amount=0
kerning first=90 second=250 amount=0
kerning first=90 second=251 amount=0
kerning first=90 second=252 amount=0
kerning first=90 second=253 amount=-1
kerning first=90 second=255 amount=-1
kerning first=90 second=339 amount=0
kerning first=90 second=338 amount=-1
kerning first=91 second=74 amount=0
kerning first=91 second=85 amount=0
kerning first=91 second=217 amount=0
kerning first=91 second=218 amount=0
kerning first=91 second=219 amount=0
kerning first=91 second=220 amount=0
kerning first=97 second=34 amount=0
kerning first=97 second=39 amount=0
kerning first=97 second=118 amount=0
kerning first=97 second=121 amount=0
kerning first=97 second=253 amount=0
kerning first=97 second=255 amount=0
kerning first=98 second=34 amount=-1
kerning first=98 second=39 amount=-1
kerning first=98 second=118 amount=0
kerning first=98 second=120 amount=0
kerning first=98 second=121 amount=0
kerning first=98 second=122 amount=0
kerning first=98 second=253 amount=0
kerning first=98 second=255 amount=0
kerning first=99 second=34 amount=0
kerning first=99 second=39 amount=0
kerning first=101 second=34 amount=0
kerning first=101 second=39 amount=0
kerning first=101 second=118 amount=0
kerning first=101 second=121 amount=0
kerning first=101 second=253 amount=0
kerning first=101 second=255 amount=0
kerning first=102 second=34 amount=0
kerning first=102 second=39 amount=0
kerning first=102 second=41 amount=0
kerning first=102 second=93 amount=0
kerning first=102 second=99 amount=0
kerning first=102 second=100 amount=0
kerning first=102 second=101 amount=0
kerning first=102 second=103 amount=0
kerning first=102 second=113 amount=0
kerning first=102 second=125 amount=0
kerning first=102 second=231 amount=0
kerning first=102 second=232 amount=0
kerning first=102 second=233 amount=0
kerning first=102 second=234 amount=0
kerning first=102 second=235 amount=0
kerning first=102 second=339 amount=0
kerning first=104 second=34 amount=-2
kerning first=104 second=39 amount=-2
kerning first=107 second=99 amount=0
kerning first=107 second=100 amount=0
kerning first=107 second=101 amount=0
kerning first=107 second=103 amount=0
kerning first=107 second=113 amount=0
kerning first=107 second=231 amount=0
kerning first=107 second=232 amount=0
kerning first=107 second=233 amount=0
kerning first=107 second=234 amount=0
kerning first=107 second=235 amount=0
kerning first=107 second=339 amount=0
kerning first=109 second=34 amount=-2
kerning first=109 second=39 amount=-2
kerning first=110 second=34 amount=-2
kerning first=110 second=39 amount=-2
kerning first=111 second=34 amount=-2
kerning first=111 second=39 amount=-2
kerning first=111 second=118 amount=0
kerning first=111 second=120 amount=0
kerning first=111 second=121 amount=0
kerning first=111 second=122 amount=0
kerning first=111 second=253 amount=0
kerning first=111 second=255 amount=0
kerning first=112 second=34 amount=-1
kerning first=112 second=39 amount=-1
kerning first=112 second=118 amount=0
kerning first=112 second=120 amount=0
kerning first=112 second=121 amount=0
kerning first=112 second=122 amount=0
kerning first=112 second=253 amount=0
kerning first=112 second=255 amount=0
kerning first=114 second=34 amount=0
kerning first=114 second=39 amount=0
kerning first=114 second=44 amount=-4
kerning first=114 second=46 amount=-4
kerning first=114 second=97 amount=-1
kerning first=114 second=99 amount=0
kerning first=114 second=100 amount=0
kerning first=114 second=101 amount=0
kerning first=114 second=102 amount=0
kerning first=114 second=103 amount=0
kerning first=114 second=111 amount=-1
kerning first=114 second=113 amount=0
kerning first=114 second=116 amount=1
kerning first=114 second=118 amount=0
kerning first=114 second=119 amount=0
kerning first=114 second=121 amount=0
kerning first=114 second=224 amount=-1
kerning first=114 second=225 amount=-1
kerning first=114 second=226 amount=-1
kerning first=114 second=227 amount=-1
kerning first=114 second=228 amount=-1
kerning first=114 second=229 amount=-1
kerning first=114 second=231 amount=0
kerning first=114 second=232 amount=0
kerning first=114 second=233 amount=0
kerning first=114 second=234 amount=0
kerning first=114 second=235 amount=0
kerning first=114 second=242 amount=-1
kerning first=114 second=243 amount=-1
kerning first=114 second=244 amount=-1
kerning first=114 second=245 amount=-1
kerning first=114 second=246 amount=-1
kerning first=114 second=253 amount=0
kerning first=114 second=255 amount=0
kerning first=114 second=339 amount=0
kerning first=116 second=111 amount=-1
kerning first=116 second=242 amount=-1
kerning first=116 second=243 amount=-1
kerning first=116 second=244 amount=-1
kerning first=116 second=245 amount=-1
kerning first=116 second=246 amount=-1
kerning first=118 second=34 amount=0
kerning first=118 second=39 amount=0
kerning first=118 second=44 amount=-3
kerning first=118 second=46 amount=-3
kerning first=118 second=97 amount=0
kerning first=118 second=99 amount=0
kerning first=118 second=100 amount=0
kerning first=118 second=101 amount=0
kerning first=118 second=102 amount=0
kerning first=118 second=103 amount=0
kerning first=118 second=111 amount=0
kerning first=118 second=113 amount=0
kerning first=118 second=224 amount=0
kerning first=118 second=225 amount=0
kerning first=118 second=226 amount=0
kerning first=118 second=227 amount=0
kerning first=118 second=228 amount=0
kerning first=118 second=229 amount=0
kerning first=118 second=231 amount=0
kerning first=118 second=232 amount=0
kerning first=118 second=233 amount=0
kerning first=118 second=234 amount=0
kerning first=118 second=235 amount=0
kerning first=118 second=242 amount=0
kerning first=118 second=243 amount=0
kerning first=118 second=244 amount=0
kerning first=118 second=245 amount=0
kerning first=118 second=246 amount=0
kerning first=118 second=339 amount=0
kerning first=119 second=44 amount=-3
kerning first=119 second=46 amount=-3
kerning first=120 second=99 amount=0
kerning first=120 second=100 amount=0
kerning first=120 second=101 amount=0
kerning first=120 second=103 amount=0
kerning first=120 second=111 amount=-1
kerning first=120 second=113 amount=0
kerning first=120 second=231 amount=0
kerning first=120 second=232 amount=0
kerning first=120 second=233 amount=0
kerning first=120 second=234 amount=0
kerning first=120 second=235 amount=0
kerning first=120 second=242 amount=-1
kerning first=120 second=243 amount=-1
kerning first=120 second=244 amount=-1
kerning first=120 second=245 amount=-1
kerning first=120 second=246 amount=-1
kerning first=120 second=339 amount=0
kerning first=121 second=34 amount=0
kerning first=121 second=39 amount=0
kerning first=121 second=44 amount=-3
kerning first=121 second=46 amount=-3
kerning first=121 second=97 amount=0
kerning first=121 second=99 amount=0
kerning first=121 second=100 amount=0
kerning first=121 second=101 amount=0
kerning first=121 second=102 amount=0
kerning first=121 second=103 amount=0
kerning first=121 second=111 amount=0
kerning first=121 second=113 amount=0
kerning first=121 second=224 amount=0
kerning first=121 second=225 amount=0
kerning first=121 second=226 amount=0
kerning first=121 second=227 amount=0
kerning first=121 second=228 amount=0
kerning first=121 second=229 amount=0
kerning first=121 second=231 amount=0
kerning first=121 second=232 amount=0
kerning first=121 second=233 amount=0
kerning first=121 second=234 amount=0
kerning first=121 second=235 amount=0
kerning first=121 second=242 amount=0
kerning first=121 second=243 amount=0
kerning first=121 second=244 amount=0
kerning first=121 second=245 amount=0
kerning first=121 second=246 amount=0
kerning first=121 second=339 amount=0
kerning first=122 second=99 amount=0
kerning first=122 second=100 amount=0
kerning first=122 second=101 amount=0
kerning first=122 second=103 amount=0
kerning first=122 second=111 amount=0
kerning first=122 second=113 amount=0
kerning first=122 second=231 amount=0
kerning first=122 second=232 amount=0
kerning first=122 second=233 amount=0
kerning first=122 second=234 amount=0
kerning first=122 second=235 amount=0
kerning first=122 second=242 amount=0
kerning first=122 second=243 amount=0
kerning first=122 second=244 amount=0
kerning first=122 second=245 amount=0
kerning first=122 second=246 amount=0
kerning first=122 second=339 amount=0
kerning first=123 second=74 amount=0
kerning first=123 second=85 amount=0
kerning first=123 second=217 amount=0
kerning first=123 second=218 amount=0
kerning first=123 second=219 amount=0
kerning first=123 second=220 amount=0
kerning first=192 second=34 amount=-2
kerning first=192 second=39 amount=-2
kerning first=192 second=63 amount=-2
kerning first=192 second=67 amount=0
kerning first=192 second=71 amount=0
kerning first=192 second=79 amount=0
kerning first=192 second=81 amount=0
kerning first=192 second=84 amount=-2
kerning first=192 second=85 amount=0
kerning first=192 second=86 amount=-2
kerning first=192 second=87 amount=-1
kerning first=192 second=89 amount=-3
kerning first=192 second=109 amount=-1
kerning first=192 second=110 amount=-1
kerning first=192 second=111 amount=0
kerning first=192 second=112 amount=-1
kerning first=192 second=116 amount=0
kerning first=192 second=117 amount=0
kerning first=192 second=118 amount=-1
kerning first=192 second=119 amount=-1
kerning first=192 second=121 amount=-1
kerning first=192 second=122 amount=0
kerning first=192 second=199 amount=0
kerning first=192 second=210 amount=0
kerning first=192 second=211 amount=0
kerning first=192 second=212 amount=0
kerning first=192 second=213 amount=0
kerning first=192 second=214 amount=0
kerning first=192 second=216 amount=0
kerning first=192 second=217 amount=0
kerning first=192 second=218 amount=0
kerning first=192 second=219 amount=0
kerning first=192 second=220 amount=0
kerning first=192 second=221 amount=-3
kerning first=192 second=241 amount=-1
kerning first=192 second=242 amount=0
kerning first=192 second=243 amount=0
kerning first=192 second=244 amount=0
kerning first=192 second=245 amount=0
kerning first=192 second=246 amount=0
kerning first=192 second=249 amount=0
kerning first=192 second=250 amount=0
kerning first=192 second=251 amount=0
kerning first=192 second=252 amount=0
kerning first=192 second=253 amount=-1
kerning first=192 second=255 amount=-1
kerning first=192 second=338 amount=0
kerning first=193 second=34 amount=-2
kerning first=193 second=39 amount=-2
kerning first=193 second=63 amount=-2
kerning first=193 second=67 amount=0
kerning first=193 second=71 amount=0
kerning first=193 second=79 amount=0
kerning first=193 second=81 amount=0
kerning first=193 second=84 amount=-2
kerning first=193 second=85 amount=0
kerning first=193 second=86 amount=-2
kerning first=193 second=87 amount=-1
kerning first=193 second=89 amount=-3
kerning first=193 second=109 amount=-1
kerning first=193 second=110 amount=-1
kerning first=193 second=111 amount=0
kerning first=193 second=112 amount=-1
kerning first=193 second=116 amount=0
kerning first=193 second=117 amount=0
kerning first=193 second=118 amount=-1
kerning first=193 second=119 amount=-1
kerning first=193 second=121 amount=-1
kerning first=193 second=122 amount=0
kerning first=193 second=199 amount=0
kerning first=193 second=210 amount=0
kerning first=193 second=211 amount=0
kerning first=193 second=212 amount=0
kerning first=193 second=213 amount=0
kerning first=193 second=214 amount=0
kerning first=193 second=216 amount=0
kerning first=193 second=217 amount=0
kerning first=193 second=218 amount=0
kerning first=193 second=219 amount=0
kerning first=193 second=220 amount=0
kerning first=193 second=221 amount=-3
kerning first=193 second=241 amount=-1
kerning first=193 second=242 amount=0
kerning first=193 second=243 amount=0
kerning first=193 second=244 amount=0
kerning first=193 second=245 amount=0
kerning first=193 second=246 amount=0
kerning first=193 second=249 amount=0
kerning first=193 second=250 amount=0
kerning first=193 second=251 amount=0
kerning first=193 second=252 amount=0
kerning first=193 second=253 amount=-1
kerning first=193 second=255 amount=-1
kerning first=193 second=338 amount=0
kerning first=194 second=34 amount=-2
kerning first=194 second=39 amount=-2
kerning first=194 second=63 amount=-2
kerning first=194 second=67 amount=0
kerning first=194 second=71 amount=0
kerning first=194 second=79 amount=0
kerning first=194 second=81 amount=0
kerning first=194 second=84 amount=-2
kerning first=194 second=85 amount=0
kerning first=194 second=86 amount=-2
kerning first=194 second=87 amount=-1
kerning first=194 second=89 amount=-3
kerning first=194 second=109 amount=-1
kerning first=194 second=110 amount=-1
kerning first=194 second=111 amount=0
kerning first=194 second=112 amount=-1
kerning first=194 second=116 amount=0
kerning first=194 second=117 amount=0
kerning first=194 second=118 amount=-1
kerning first=194 second=119 amount=-1
kerning first=194 second=121 amount=-1
kerning first=194 second=122 amount=0
kerning first=194 second=199 amount=0
kerning first=194 second=210 amount=0
kerning first=194 second=211 amount=0
kerning first=194 second=212 amount=0
kerning first=194 second=213 amount=0
kerning first=194 second=214 amount=0
kerning first=194 second=216 amount=0
kerning first=194 second=217 amount=0
kerning first=194 second=218 amount=0
kerning first=194 second=219 amount=0
kerning first=194 second=220 amount=0
kerning first=194 second=221 amount=-3
kerning first=194 second=241 amount=-1
kerning first=194 second=242 amount=0
kerning first=194 second=243 amount=0
kerning first=194 second=244 amount=0
kerning first=194 second=245 amount=0
kerning first=194 second=246 amount=0
kerning first=194 second=249 amount=0
kerning first=194 second=250 amount=0
kerning first=194 second=251 amount=0
kerning first=194 second=252 amount=0
kerning first=194 second=253 amount=-1
kerning first=194 second=255 amount=-1
kerning first=194 second=338 amount=0
kerning first=195 second=34 amount=-2
kerning first=195 second=39 amount=-2
kerning first=195 second=63 amount=-2
kerning first=195 second=67 amount=0
kerning first=195 second=71 amount=0
kerning first=195 second=79 amount=0
kerning first=195 second=81 amount=0
kerning first=195 second=84 amount=-2
kerning first=195 second=85 amount=0
kerning first=195 second=86 amount=-2
kerning first=195 second=87 amount=-1
kerning first=195 second=89 amount=-3
kerning first=195 second=109 amount=-1
kerning first=195 second=110 amount=-1
kerning first=195 second=111 amount=0
kerning first=195 second=112 amount=-1
kerning first=195 second=116 amount=0
kerning first=195 second=117 amount=0
kerning first=195 second=118 amount=-1
kerning first=195 second=119 amount=-1
kerning first=195 second=121 amount=-1
kerning first=195 second=122 amount=0
kerning first=195 second=199 amount=0
kerning first=195 second=210 amount=0
kerning first=195 second=211 amount=0
kerning first=195 second=212 amount=0
kerning first=195 second=213 amount=0
kerning first=195 second=214 amount=0
kerning first=195 second=216 amount=0
kerning first=195 second=217 amount=0
kerning first=195 second=218 amount=0
kerning first=195 second=219 amount=0
kerning first=195 second=220 amount=0
kerning first=195 second=221 amount=-3
kerning first=195 second=241 amount=-1
kerning first=195 second=242 amount=0
kerning first=195 second=243 amount=0
kerning first=195 second=244 amount=0
kerning first=195 second=245 amount=0
kerning first=195 second=246 amount=0
kerning first=195 second=249 amount=0
kerning first=195 second=250 amount=0
kerning first=195 second=251 amount=0
kerning first=195 second=252 amount=0
kerning first=195 second=253 amount=-1
kerning first=195 second=255 amount=-1
kerning first=195 second=338 amount=0
kerning first=196 second=34 amount=-2
kerning first=196 second=39 amount=-2
kerning first=196 second=63 amount=-2
kerning first=196 second=67 amount=0
kerning first=196 second=71 amount=0
kerning first=196 second=79 amount=0
kerning first=196 second=81 amount=0
kerning first=196 second=84 amount=-2
kerning first=196 second=85 amount=0
kerning first=196 second=86 amount=-2
kerning first=196 second=87 amount=-1
kerning first=196 second=89 amount=-3
kerning first=196 second=109 amount=-1
kerning first=196 second=110 amount=-1
kerning first=196 second=111 amount=0
kerning first=196 second=112 amount=-1
kerning first=196 second=116 amount=0
kerning first=196 second=117 amount=0
kerning first=196 second=118 amount=-1
kerning first=196 second=119 amount=-1
kerning first=196 second=121 amount=-1
kerning first=196 second=122 amount=0
kerning first=196 second=199 amount=0
kerning first=196 second=210 amount=0
kerning first=196 second=211 amount=0
kerning first=196 second=212 amount=0
kerning first=196 second=213 amount=0
kerning first=196 second=214 amount=0
kerning first=196 second=216 amount=0
kerning first=196 second=217 amount=0
kerning first=196 second=218 amount=0
kerning first=196 second=219 amount=0
kerning first=196 second=220 amount=0
kerning first=196 second=221 amount=-3
kerning first=196 second=241 amount=-1
kerning first=196 second=242 amount=0
kerning first=196 second=243 amount=0
kerning first=196 second=244 amount=0
kerning first=196 second=245 amount=0
kerning first=196 second=246 amount=0
kerning first=196 second=249 amount=0
kerning first=196 second=250 amount=0
kerning first=196 second=251 amount=0
kerning first=196 second=252 amount=0
kerning first=196 second=253 amount=-1
kerning first=196 second=255 amount=-1
kerning first=196 second=338 amount=0
kerning first=197 second=34 amount=-2
kerning first=197 second=39 amount=-2
kerning first=197 second=63 amount=-2
kerning first=197 second=67 amount=0
kerning first=197 second=71 amount=0
kerning first=197 second=79 amount=0
kerning first=197 second=81 amount=0
kerning first=197 second=84 amount=-2
kerning first=197 second=85 amount=0
kerning first=197 second=86 amount=-2
kerning first=197 second=87 amount=-1
kerning first=197 second=89 amount=-3
kerning first=197 second=109 amount=-1
kerning first=197 second=110 amount=-1
kerning first=197 second=111 amount=0
kerning first=197 second=112 amount=-1
kerning first=197 second=116 amount=0
kerning first=197 second=117 amount=0
kerning first=197 second=118 amount=-1
kerning first=197 second=119 amount=-1
kerning first=197 second=121 amount=-1
kerning first=197 second=122 amount=0
kerning first=197 second=199 amount=0
kerning first=197 second=210 amount=0
kerning first=197 second=211 amount=0
kerning first=197 second=212 amount=0
kerning first=197 second=213 amount=0
kerning first=197 second=214 amount=0
kerning first=197 second=216 amount=0
kerning first=197 second=217 amount=0
kerning first=197 second=218 amount=0
kerning first=197 second=219 amount=0
kerning first=197 second=220 amount=0
kerning first=197 second=221 amount=-3
kerning first=197 second=241 amount=-1
kerning first=197 second=242 amount=0
kerning first=197 second=243 amount=0
kerning first=197 second=244 amount=0
kerning first=197 second=245 amount=0
kerning first=197 second=246 amount=0
kerning first=197 second=249 amount=0
kerning first=197 second=250 amount=0
kerning first=197 second=251 amount=0
kerning first=197 second=252 amount=0
kerning first=197 second=253 amount=-1
kerning first=197 second=255 amount=-1
kerning first=197 second=338 amount=0
kerning first=199 second=41 amount=-1
kerning first=199 second=84 amount=-1
kerning first=199 second=93 amount=0
kerning first=199 second=125 amount=0
kerning first=200 second=84 amount=0
kerning first=200 second=99 amount=0
kerning first=200 second=100 amount=0
kerning first=200 second=101 amount=0
kerning first=200 second=102 amount=0
kerning first=200 second=103 amount=0
kerning first=200 second=111 amount=0
kerning first=200 second=113 amount=0
kerning first=200 second=117 amount=0
kerning first=200 second=118 amount=-1
kerning first=200 second=119 amount=0
kerning first=200 second=121 amount=-1
kerning first=200 second=231 amount=0
kerning first=200 second=232 amount=0
kerning first=200 second=233 amount=0
kerning first=200 second=234 amount=0
kerning first=200 second=235 amount=0
kerning first=200 second=242 amount=0
kerning first=200 second=243 amount=0
kerning first=200 second=244 amount=0
kerning first=200 second=245 amount=0
kerning first=200 second=246 amount=0
kerning first=200 second=249 amount=0
kerning first=200 second=250 amount=0
kerning first=200 second=251 amount=0
kerning first=200 second=252 amount=0
kerning first=200 second=253 amount=-1
kerning first=200 second=255 amount=-1
kerning first=200 second=339 amount=0
kerning first=201 second=84 amount=0
kerning first=201 second=99 amount=0
kerning first=201 second=100 amount=0
kerning first=201 second=101 amount=0
kerning first=201 second=102 amount=0
kerning first=201 second=103 amount=0
kerning first=201 second=111 amount=0
kerning first=201 second=113 amount=0
kerning first=201 second=117 amount=0
kerning first=201 second=118 amount=-1
kerning first=201 second=119 amount=0
kerning first=201 second=121 amount=-1
kerning first=201 second=231 amount=0
kerning first=201 second=232 amount=0
kerning first=201 second=233 amount=0
kerning first=201 second=234 amount=0
kerning first=201 second=235 amount=0
kerning first=201 second=242 amount=0
kerning first=201 second=243 amount=0
kerning first=201 second=244 amount=0
kerning first=201 second=245 amount=0
kerning first=201 second=246 amount=0
kerning first=201 second=249 amount=0
kerning first=201 second=250 amount=0
kerning first=201 second=251 amount=0
kerning first=201 second=252 amount=0
kerning first=201 second=253 amount=-1
kerning first=201 second=255 amount=-1
kerning first=201 second=339 amount=0
kerning first=202 second=84 amount=0
kerning first=202 second=99 amount=0
kerning first=202 second=100 amount=0
kerning first=202 second=101 amount=0
kerning first=202 second=102 amount=0
kerning first=202 second=103 amount=0
kerning first=202 second=111 amount=0
kerning first=202 second=113 amount=0
kerning first=202 second=117 amount=0
kerning first=202 second=118 amount=-1
kerning first=202 second=119 amount=0
kerning first=202 second=121 amount=-1
kerning first=202 second=231 amount=0
kerning first=202 second=232 amount=0
kerning first=202 second=233 amount=0
kerning first=202 second=234 amount=0
kerning first=202 second=235 amount=0
kerning first=202 second=242 amount=0
kerning first=202 second=243 amount=0
kerning first=202 second=244 amount=0
kerning first=202 second=245 amount=0
kerning first=202 second=246 amount=0
kerning first=202 second=249 amount=0
kerning first=202 second=250 amount=0
kerning first=202 second=251 amount=0
kerning first=202 second=252 amount=0
kerning first=202 second=253 amount=-1
kerning first=202 second=255 amount=-1
kerning first=202 second=339 amount=0
kerning first=203 second=84 amount=0
kerning first=203 second=99 amount=0
kerning first=203 second=100 amount=0
kerning first=203 second=101 amount=0
kerning first=203 second=102 amount=0
kerning first=203 second=103 amount=0
kerning first=203 second=111 amount=0
kerning first=203 second=113 amount=0
kerning first=203 second=117 amount=0
kerning first=203 second=118 amount=-1
kerning first=203 second=119 amount=0
kerning first=203 second=121 amount=-1
kerning first=203 second=231 amount=0
kerning first=203 second=232 amount=0
kerning first=203 second=233 amount=0
kerning first=203 second=234 amount=0
kerning first=203 second=235 amount=0
kerning first=203 second=242 amount=0
kerning first=203 second=243 amount=0
kerning first=203 second=244 amount=0
kerning first=203 second=245 amount=0
kerning first=203 second=246 amount=0
kerning first=203 second=249 amount=0
kerning first=203 second=250 amount=0
kerning first=203 second=251 amount=0
kerning first=203 second=252 amount=0
kerning first=203 second=253 amount=-1
kerning first=203 second=255 amount=-1
kerning first=203 second=339 amount=0
kerning first=204 second=65 amount=0
kerning first=204 second=84 amount=-1
kerning first=204 second=88 amount=0
kerning first=204 second=89 amount=-1
kerning first=204 second=192 amount=0
kerning first=204 second=193 amount=0
kerning first=204 second=194 amount=0
kerning first=204 second=195 amount=0
kerning first=204 second=196 amount=0
kerning first=204 second=197 amount=0
kerning first=204 second=221 amount=-1
kerning first=205 second=65 amount=0
kerning first=205 second=84 amount=-1
kerning first=205 second=88 amount=0
kerning first=205 second=89 amount=-1
kerning first=205 second=192 amount=0
kerning first=205 second=193 amount=0
kerning first=205 second=194 amount=0
kerning first=205 second=195 amount=0
kerning first=205 second=196 amount=0
kerning first=205 second=197 amount=0
kerning first=205 second=221 amount=-1
kerning first=206 second=65 amount=0
kerning first=206 second=84 amount=-1
kerning first=206 second=88 amount=0
kerning first=206 second=89 amount=-1
kerning first=206 second=192 amount=0
kerning first=206 second=193 amount=0
kerning first=206 second=194 amount=0
kerning first=206 second=195 amount=0
kerning first=206 second=196 amount=0
kerning first=206 second=197 amount=0
kerning first=206 second=221 amount=-1
kerning first=207 second=65 amount=0
kerning first=207 second=84 amount=-1
kerning first=207 second=88 amount=0
kerning first=207 second=89 amount=-1
kerning first=207 second=192 amount=0
kerning first=207 second=193 amount=0
kerning first=207 second=194 amount=0
kerning first=207 second=195 amount=0
kerning first=207 second=196 amount=0
kerning first=207 second=197 amount=0
kerning first=207 second=221 amount=-1
kerning first=208 second=44 amount=-3
kerning first=208 second=46 amount=-3
kerning first=208 second=65 amount=0
kerning first=208 second=84 amount=-2
kerning first=208 second=86 amount=0
kerning first=208 second=88 amount=0
kerning first=208 second=89 amount=-1
kerning first=208 second=90 amount=0
kerning first=208 second=192 amount=0
kerning first=208 second=193 amount=0
kerning first=208 second=194 amount=0
kerning first=208 second=195 amount=0
kerning first=208 second=196 amount=0
kerning first=208 second=197 amount=0
kerning first=208 second=198 amount=-1
kerning first=208 second=221 amount=-1
kerning first=209 second=65 amount=0
kerning first=209 second=84 amount=-1
kerning first=209 second=88 amount=0
kerning first=209 second=89 amount=-1
kerning first=209 second=192 amount=0
kerning first=209 second=193 amount=0
kerning first=209 second=194 amount=0
kerning first=209 second=195 amount=0
kerning first=209 second=196 amount=0
kerning first=209 second=197 amount=0
kerning first=209 second=221 amount=-1
kerning first=210 second=44 amount=-3
kerning first=210 second=46 amount=-3
kerning first=210 second=65 amount=0
kerning first=210 second=84 amount=-2
kerning first=210 second=86 amount=0
kerning first=210 second=88 amount=0
kerning first=210 second=89 amount=-1
kerning first=210 second=90 amount=0
kerning first=210 second=192 amount=0
kerning first=210 second=193 amount=0
kerning first=210 second=194 amount=0
kerning first=210 second=195 amount=0
kerning first=210 second=196 amount=0
kerning first=210 second=197 amount=0
kerning first=210 second=198 amount=-1
kerning first=210 second=221 amount=-1
kerning first=211 second=44 amount=-3
kerning first=211 second=46 amount=-3
kerning first=211 second=65 amount=0
kerning first=211 second=84 amount=-2
kerning first=211 second=86 amount=0
kerning first=211 second=88 amount=0
kerning first=211 second=89 amount=-1
kerning first=211 second=90 amount=0
kerning first=211 second=192 amount=0
kerning first=211 second=193 amount=0
kerning first=211 second=194 amount=0
kerning first=211 second=195 amount=0
kerning first=211 second=196 amount=0
kerning first=211 second=197 amount=0
kerning first=211 second=198 amount=-1
kerning first=211 second=221 amount=-1
kerning first=212 second=44 amount=-3
kerning first=212 second=46 amount=-3
kerning first=212 second=65 amount=0
kerning first=212 second=84 amount=-2
kerning first=212 second=86 amount=0
kerning first=212 second=88 amount=0
kerning first=212 second=89 amount=-1
kerning first=212 second=90 amount=0
kerning first=212 second=192 amount=0
kerning first=212 second=193 amount=0
kerning first=212 second=194 amount=0
kerning first=212 second=195 amount=0
kerning first=212 second=196 amount=0
kerning first=212 second=197 amount=0
kerning first=212 second=198 amount=-1
kerning first=212 second=221 amount=-1
kerning first=213 second=44 amount=-3
kerning first=213 second=46 amount=-3
kerning first=213 second=65 amount=0
kerning first=213 second=84 amount=-2
kerning first=213 second=86 amount=0
kerning first=213 second=88 amount=0
kerning first=213 second=89 amount=-1
kerning first=213 second=90 amount=0
kerning first=213 second=192 amount=0
kerning first=213 second=193 amount=0
kerning first=213 second=194 amount=0
kerning first=213 second=195 amount=0
kerning first=213 second=196 amount=0
kerning first=213 second=197 amount=0
kerning first=213 second=198 amount=-1
kerning first=213 second=221 amount=-1
kerning first=214 second=44 amount=-3
kerning first=214 second=46 amount=-3
kerning first=214 second=65 amount=0
kerning first=214 second=84 amount=-2
kerning first=214 second=86 amount=0
kerning first=214 second=88 amount=0
kerning first=214 second=89 amount=-1
kerning first=214 second=90 amount=0
kerning first=214 second=192 amount=0
kerning first=214 second=193 amount=0
kerning first=214 second=194 amount=0
kerning first=214 second=195 amount=0
kerning first=214 second=196 amount=0
kerning first=214 second=197 amount=0
kerning first=214 second=198 amount=-1
kerning first=214 second=221 amount=-1
kerning first=217 second=65 amount=0
kerning first=217 second=192 amount=0
kerning first=217 second=193 amount=0
kerning first=217 second=194 amount=0
kerning first=217 second=195 amount=0
kerning first=217 second=196 amount=0
kerning first=217 second=197 amount=0
kerning first=218 second=65 amount=0
kerning first=218 second=192 amount=0
kerning first=218 second=193 amount=0
kerning first=218 second=194 amount=0
kerning first=218 second=195 amount=0
kerning first=218 second=196 amount=0
kerning first=218 second=197 amount=0
kerning first=219 second=65 amount=0
kerning first=219 second=192 amount=0
kerning first=219 second=193 amount=0
kerning first=219 second=194 amount=0
kerning first=219 second=195 amount=0
kerning first=219 second=196 amount=0
kerning first=219 second=197 amount=0
kerning first=220 second=65 amount=0
kerning first=220 second=192 amount=0
kerning first=220 second=193 amount=0
kerning first=220 second=194 amount=0
kerning first=220 second=195 amount=0
kerning first=220 second=196 amount=0
kerning first=220 second=197 amount=0
kerning first=221 second=38 amount=-1
kerning first=221 second=41 amount=0
kerning first=221 second=42 amount=-1
kerning first=221 second=44 amount=-5
kerning first=221 second=45 amount=-3
kerning first=221 second=46 amount=-5
kerning first=221 second=65 amount=-3
kerning first=221 second=67 amount=-1
kerning first=221 second=71 amount=-1
kerning first=221 second=74 amount=-2
kerning first=221 second=79 amount=-1
kerning first=221 second=81 amount=-1
kerning first=221 second=83 amount=0
kerning first=221 second=84 amount=0
kerning first=221 second=85 amount=-2
kerning first=221 second=86 amount=0
kerning first=221 second=87 amount=0
kerning first=221 second=88 amount=0
kerning first=221 second=89 amount=0
kerning first=221 second=93 amount=0
kerning first=221 second=97 amount=-1
kerning first=221 second=99 amount=-1
kerning first=221 second=100 amount=-1
kerning first=221 second=101 amount=-1
kerning first=221 second=102 amount=0
kerning first=221 second=103 amount=-1
kerning first=221 second=109 amount=-1
kerning first=221 second=110 amount=-1
kerning first=221 second=111 amount=-1
kerning first=221 second=112 amount=-1
kerning first=221 second=113 amount=-1
kerning first=221 second=114 amount=-1
kerning first=221 second=115 amount=-1
kerning first=221 second=116 amount=0
kerning first=221 second=117 amount=-1
kerning first=221 second=118 amount=0
kerning first=221 second=120 amount=0
kerning first=221 second=121 amount=0
kerning first=221 second=122 amount=-1
kerning first=221 second=125 amount=0
kerning first=221 second=171 amount=-2
kerning first=221 second=173 amount=-3
kerning first=221 second=187 amount=-1
kerning first=221 second=192 amount=-3
kerning first=221 second=193 amount=-3
kerning first=221 second=194 amount=-3
kerning first=221 second=195 amount=-3
kerning first=221 second=196 amount=-3
kerning first=221 second=197 amount=-3
kerning first=221 second=198 amount=-2
kerning first=221 second=199 amount=-1
kerning first=221 second=210 amount=-1
kerning first=221 second=211 amount=-1
kerning first=221 second=212 amount=-1
kerning first=221 second=213 amount=-1
kerning first=221 second=214 amount=-1
kerning first=221 second=216 amount=-1
kerning first=221 second=217 amount=-2
kerning first=221 second=218 amount=-2
kerning first=221 second=219 amount=-2
kerning first=221 second=220 amount=-2
kerning first=221 second=221 amount=0
kerning first=221 second=224 amount=-1
kerning first=221 second=225 amount=-1
kerning first=221 second=226 amount=-1
kerning first=221 second=227 amount=-1
kerning first=221 second=228 amount=-1
kerning first=221 second=229 amount=-1
kerning first=221 second=230 amount=-1
kerning first=221 second=231 amount=-1
kerning first=221 second=232 amount=-1
kerning first=221 second=233 amount=-1
kerning first=221 second=234 amount=-1
kerning first=221 second=235 amount=-1
kerning first=221 second=241 amount=-1
kerning first=221 second=242 amount=-1
kerning first=221 second=243 amount=-1
kerning first=221 second=244 amount=-1
kerning first=221 second=245 amount=-1
kerning first=221 second=246 amount=-1
kerning first=221 second=248 amount=-1
kerning first=221 second=249 amount=-1
kerning first=221 second=250 amount=-1
kerning first=221 second=251 amount=-1
kerning first=221 second=252 amount=-1
kerning first=221 second=253 amount=0
kerning first=221 second=255 amount=0
kerning first=221 second=339 amount=-1
kerning first=221 second=338 amount=-1
kerning first=224 second=34 amount=0
kerning first=224 second=39 amount=0
kerning first=224 second=118 amount=0
kerning first=224 second=121 amount=0
kerning first=224 second=253 amount=0
kerning first=224 second=255 amount=0
kerning first=225 second=34 amount=0
kerning first=225 second=39 amount=0
kerning first=225 second=118 amount=0
kerning first=225 second=121 amount=0
kerning first=225 second=253 amount=0
kerning first=225 second=255 amount=0
kerning first=226 second=34 amount=0
kerning first=226 second=39 amount=0
kerning first=226 second=118 amount=0
kerning first=226 second=121 amount=0
kerning first=226 second=253 amount=0
kerning first=226 second=255 amount=0
kerning first=227 second=34 amount=0
kerning first=227 second=39 amount=0
kerning first=227 second=118 amount=0
kerning first=227 second=121 amount=0
kerning first=227 second=253 amount=0
kerning first=227 second=255 amount=0
kerning first=228 second=34 amount=0
kerning first=228 second=39 amount=0
kerning first=228 second=118 amount=0
kerning first=228 second=121 amount=0
kerning first=228 second=253 amount=0
kerning first=228 second=255 amount=0
kerning first=229 second=34 amount=0
kerning first=229 second=39 amount=0
kerning first=229 second=118 amount=0
kerning first=229 second=121 amount=0
kerning first=229 second=253 amount=0
kerning first=229 second=255 amount=0
kerning first=231 second=34 amount=0
kerning first=231 second=39 amount=0
kerning first=232 second=34 amount=0
kerning first=232 second=39 amount=0
kerning first=232 second=118 amount=0
kerning first=232 second=121 amount=0
kerning first=232 second=253 amount=0
kerning first=232 second=255 amount=0
kerning first=233 second=34 amount=0
kerning first=233 second=39 amount=0
kerning first=233 second=118 amount=0
kerning first=233 second=121 amount=0
kerning first=233 second=253 amount=0
kerning first=233 second=255 amount=0
kerning first=234 second=34 amount=0
kerning first=234 second=39 amount=0
kerning first=234 second=118 amount=0
kerning first=234 second=121 amount=0
kerning first=234 second=253 amount=0
kerning first=234 second=255 amount=0
kerning first=235 second=34 amount=0
kerning first=235 second=39 amount=0
kerning first=235 second=118 amount=0
kerning first=235 second=121 amount=0
kerning first=235 second=253 amount=0
kerning first=235 second=255 amount=0
kerning first=241 second=34 amount=-2
kerning first=241 second=39 amount=-2
kerning first=242 second=34 amount=-2
kerning first=242 second=39 amount=-2
kerning first=242 second=118 amount=0
kerning first=242 second=120 amount=0
kerning first=242 second=121 amount=0
kerning first=242 second=122 amount=0
kerning first=242 second=253 amount=0
kerning first=242 second=255 amount=0
kerning first=243 second=34 amount=-2
kerning first=243 second=39 amount=-2
kerning first=243 second=118 amount=0
kerning first=243 second=120 amount=0
kerning first=243 second=121 amount=0
kerning first=243 second=122 amount=0
kerning first=243 second=253 amount=0
kerning first=243 second=255 amount=0
kerning first=244 second=34 amount=-2
kerning first=244 second=39 amount=-2
kerning first=244 second=118 amount=0
kerning first=244 second=120 amount=0
kerning first=244 second=121 amount=0
kerning first=244 second=122 amount=0
kerning first=244 second=253 amount=0
kerning first=244 second=255 amount=0
kerning first=245 second=34 amount=-2
kerning first=245 second=39 amount=-2
kerning first=245 second=118 amount=0
kerning first=245 second=120 amount=0
kerning first=245 second=121 amount=0
kerning first=245 second=122 amount=0
kerning first=245 second=253 amount=0
kerning first=245 second=255 amount=0
kerning first=246 second=34 amount=-2
kerning first=246 second=39 amount=-2
kerning first=246 second=118 amount=0
kerning first=246 second=120 amount=0
kerning first=246 second=121 amount=0
kerning first=246 second=122 amount=0
kerning first=246 second=253 amount=0
kerning first=246 second=255 amount=0
kerning first=253 second=34 amount=0
kerning first=253 second=39 amount=0
kerning first=253 second=44 amount=-3
kerning first=253 second=46 amount=-3
kerning first=253 second=97 amount=0
kerning first=253 second=99 amount=0
kerning first=253 second=100 amount=0
kerning first=253 second=101 amount=0
kerning first=253 second=102 amount=0
kerning first=253 second=103 amount=0
kerning first=253 second=111 amount=0
kerning first=253 second=113 amount=0
kerning first=253 second=224 amount=0
kerning first=253 second=225 amount=0
kerning first=253 second=226 amount=0
kerning first=253 second=227 amount=0
kerning first=253 second=228 amount=0
kerning first=253 second=229 amount=0
kerning first=253 second=231 amount=0
kerning first=253 second=232 amount=0
kerning first=253 second=233 amount=0
kerning first=253 second=234 amount=0
kerning first=253 second=235 amount=0
kerning first=253 second=242 amount=0
kerning first=253 second=243 amount=0
kerning first=253 second=244 amount=0
kerning first=253 second=245 amount=0
kerning first=253 second=246 amount=0
kerning first=253 second=339 amount=0
kerning first=254 second=34 amount=-1
kerning first=254 second=39 amount=-1
kerning first=254 second=118 amount=0
kerning first=254 second=120 amount=0
kerning first=254 second=121 amount=0
kerning first=254 second=122 amount=0
kerning first=254 second=253 amount=0
kerning first=254 second=255 amount=0
kerning first=255 second=34 amount=0
kerning first=255 second=39 amount=0
kerning first=255 second=44 amount=-3
kerning first=255 second=46 amount=-3
kerning first=255 second=97 amount=0
kerning first=255 second=99 amount=0
kerning first=255 second=100 amount=0
kerning first=255 second=101 amount=0
kerning first=255 second=102 amount=0
kerning first=255 second=103 amount=0
kerning first=255 second=111 amount=0
kerning first=255 second=113 amount=0
kerning first=255 second=224 amount=0
kerning first=255 second=225 amount=0
kerning first=255 second=226 amount=0
kerning first=255 second=227 amount=0
kerning first=255 second=228 amount=0
kerning first=255 second=229 amount=0
kerning first=255 second=231 amount=0
kerning first=255 second=232 amount=0
kerning first=255 second=233 amount=0
kerning first=255 second=234 amount=0
kerning first=255 second=235 amount=0
kerning first=255 second=242 amount=0
kerning first=255 second=243 amount=0
kerning first=255 second=244 amount=0
kerning first=255 second=245 amount=0
kerning first=255 second=246 amount=0
kerning first=255 second=339 amount=0
